<?xml version="1.0" encoding="utf-8"?>
<!-- Generator: Adobe Illustrator 19.2.1, SVG Export Plug-In . SVG Version: 6.00 Build 0)  -->
<svg version="1.1" id="圖層_10" xmlns="http://www.w3.org/2000/svg" xmlns:xlink="http://www.w3.org/1999/xlink" x="0px" y="0px"
	 viewBox="0 0 80 80" style="enable-background:new 0 0 80 80;" xml:space="preserve">
<style type="text/css">
	.st0{fill:#FFCCCC;}
</style>
<g>
	<circle class="st0" cx="40" cy="40" r="40"/>
	<g>
		<path d="M64.6,49.3c0,4.6-1.4,8.4-4.3,11.5c-3.3,3.5-9.1,5.2-17.3,5.2c-0.6,0-1.5,0-2.7,0c-1.2,0-2.1,0-2.7,0
			c-9.3,0-14.8-0.2-16.5-0.6c-0.7-0.2-1.1-0.5-1.1-1.2c0-2.7,0.2-6.7,0.5-12.2c0.3-5.4,0.5-9.5,0.5-12.2c0-2.9-0.1-8.4-0.5-16.4
			c-0.1-2.1-0.2-5.1-0.4-9.3l0-0.5c0-0.5,0.4-0.8,1.2-0.9c0.8-0.1,3.7-0.1,8.7-0.1c8,0,12.7,0,14,0.1c6.2,0.2,10.7,1.2,13.7,3
			c3.9,2.4,5.8,6.4,5.8,12.1c0,1.5-0.5,3-1.4,4.7c-0.7,1.2-1.5,2.4-2.6,3.5c-0.9,1-1.4,1.5-1.4,1.4c0,0.2,0.3,0.5,1,0.8
			c1.8,1,3.1,2.6,4.1,4.8C64.1,45,64.6,47.1,64.6,49.3z M48.4,28.1c0-2.2-1.1-3.6-3.2-4.3c-1.2-0.4-3.2-0.6-5.9-0.6
			c-2.7,0-4.1,0.2-4.1,0.6c0,0.5,0,1.2-0.1,2.2c-0.1,1-0.1,1.7-0.1,2.2c0,2.5,0.2,3.9,0.6,4.2c0.3,0.2,1.9,0.3,4.8,0.3
			C45.7,32.8,48.4,31.2,48.4,28.1z M49.5,49.2c0-2.3-0.9-3.8-2.8-4.6c-1.2-0.5-3.2-0.8-5.9-0.8c-3.2,0-5,0.1-5.3,0.4
			c-0.3,0.2-0.4,1.8-0.4,4.6c0,3,0.2,4.6,0.5,4.9c0.3,0.3,2.1,0.5,5.4,0.5c2.7,0,4.6-0.2,5.7-0.6C48.6,52.8,49.5,51.4,49.5,49.2z"/>
	</g>
</g>
</svg>
