<?xml version="1.0" encoding="utf-8"?>
<!-- Generator: Adobe Illustrator 19.1.0, SVG Export Plug-In . SVG Version: 6.00 Build 0)  -->
<svg version="1.1" id="圖層_3" xmlns="http://www.w3.org/2000/svg" xmlns:xlink="http://www.w3.org/1999/xlink" x="0px" y="0px"
	 viewBox="-39 150 720 502" style="enable-background:new -39 150 720 502;" xml:space="preserve">
<style type="text/css">
	.st0{fill:#030000;}
	.st1{fill:url(#SVGID_1_);}
	.st2{fill:url(#SVGID_2_);}
	.st3{fill:url(#SVGID_3_);}
</style>
<g>
	<path class="st0" d="M122.1,538.7v2.5H83v-2.5h3.3c3.7,0,6.5-1.1,8.2-3.3c1.1-1.4,1.6-4.9,1.6-10.4v-58.8c0-4.6-0.3-7.7-0.8-9.2
		c-0.4-1.1-1.4-2.1-2.8-2.8c-2-1.1-4.1-1.7-6.2-1.7H83V450h39.1v2.5h-3.3c-3.7,0-6.4,1.1-8.1,3.3c-1.1,1.4-1.7,4.8-1.7,10.4V525
		c0,4.6,0.3,7.7,0.8,9.1c0.4,1.1,1.4,2.1,2.8,2.9c1.9,1.1,4,1.6,6.1,1.6h3.4V538.7z"/>
	<path class="st0" d="M191.1,452.6v-2.5h32.3v2.5H220c-3.6,0-6.4,1.5-8.3,4.5c-0.9,1.4-1.4,4.6-1.4,9.7v37c0,9.1-0.9,16.2-2.7,21.2
		s-5.4,9.4-10.7,13c-5.3,3.6-12.5,5.4-21.7,5.4c-10,0-17.5-1.7-22.7-5.2c-5.1-3.4-8.8-8.1-11-13.9c-1.4-4-2.2-11.5-2.2-22.5v-35.6
		c0-5.6-0.8-9.3-2.3-11.1c-1.5-1.8-4-2.6-7.5-2.6h-3.3V450h39.4v2.5h-3.5c-3.8,0-6.5,1.2-8.1,3.6c-1.1,1.6-1.7,5-1.7,10.1v39.7
		c0,3.6,0.3,7.6,1,12.2c0.6,4.6,1.8,8.1,3.5,10.7s4.2,4.7,7.4,6.3c3.2,1.7,7.1,2.5,11.7,2.5c6,0,11.3-1.3,16-3.9
		c4.7-2.6,7.9-6,9.6-10c1.7-4.1,2.6-10.9,2.6-20.5v-36.9c0-5.7-0.6-9.3-1.8-10.7c-1.7-2-4.3-3-7.8-3L191.1,452.6L191.1,452.6z"/>
	<path class="st0" d="M223.1,450.1h24.8l55.7,68.4V466c0-5.6-0.6-9.1-1.9-10.5c-1.6-1.9-4.2-2.8-7.8-2.8h-3.2v-2.5h31.7v2.5h-3.2
		c-3.9,0-6.7,1.2-8.3,3.5c-0.9,1.4-1.4,4.7-1.4,9.9v76.8h-2.4L247,469.5v56.1c0,5.6,0.6,9,1.8,10.4c1.7,1.9,4.3,2.8,7.8,2.8h3.3v2.5
		h-31.7v-2.5h3.1c4,0,6.7-1.2,8.3-3.5c1-1.4,1.5-4.6,1.5-9.8v-63.4c-2.6-3.1-4.6-5.2-6-6.1c-1.4-1-3.4-1.9-6.1-2.8
		c-1.3-0.4-3.3-0.6-5.9-0.6V450.1z"/>
	<path class="st0" d="M366.8,538.7v2.5h-39.1v-2.5h3.3c3.7,0,6.5-1.1,8.2-3.3c1.1-1.4,1.6-4.9,1.6-10.4v-58.8c0-4.6-0.3-7.7-0.8-9.2
		c-0.4-1.1-1.4-2.1-2.8-2.8c-2-1.1-4.1-1.7-6.2-1.7h-3.3V450h39.1v2.5h-3.3c-3.7,0-6.4,1.1-8.1,3.3c-1.1,1.4-1.7,4.8-1.7,10.4V525
		c0,4.6,0.3,7.7,0.8,9.1c0.4,1.1,1.4,2.1,2.8,2.9c1.9,1.1,4,1.6,6.1,1.6h3.4V538.7z"/>
	<path class="st0" d="M368.3,450.1h24.8l55.7,68.4V466c0-5.6-0.6-9.1-1.9-10.5c-1.6-1.9-4.2-2.8-7.8-2.8h-3.2v-2.5h31.7v2.5h-3.2
		c-3.9,0-6.7,1.2-8.3,3.5c-0.9,1.4-1.4,4.7-1.4,9.9v76.8h-2.4l-60.1-73.6v56.1c0,5.6,0.6,9,1.8,10.4c1.7,1.9,4.3,2.8,7.8,2.8h3.3
		v2.5h-31.7v-2.5h3.1c4,0,6.7-1.2,8.3-3.5c1-1.4,1.5-4.6,1.5-9.8v-63.4c-2.6-3.1-4.6-5.2-6-6.1c-1.4-1-3.4-1.9-6.1-2.8
		c-1.3-0.4-3.3-0.6-5.9-0.6L368.3,450.1L368.3,450.1z"/>
	<path class="st0" d="M554.1,448l2.3,28.8h-2.3c-2.4-7.2-5.5-12.6-9.2-16.2c-5.5-5.2-12.4-7.8-21-7.8c-11.6,0-20.4,4.6-26.5,13.8
		c-5.1,7.7-7.6,16.9-7.6,27.6c0,8.7,1.7,16.7,5.1,23.8c3.4,7.2,7.8,12.4,13.2,15.7c5.4,3.3,11,5,16.8,5c3.3,0,6.6-0.4,9.7-1.3
		c3.1-0.8,6.2-2.1,9.1-3.8v-26.4c0-4.6-0.3-7.6-1-9s-1.8-2.5-3.2-3.2s-4-1.1-7.7-1.1v-2.6H567v2.6h-1.7c-3.5,0-5.9,1.2-7.2,3.5
		c-0.9,1.7-1.3,4.9-1.3,9.8v27.9c-5.2,2.8-10.3,4.8-15.3,6.1c-5,1.3-10.6,2-16.7,2c-17.6,0-31-5.6-40.2-16.9
		c-6.8-8.5-10.3-18.2-10.3-29.3c0-8,1.9-15.7,5.8-23c4.6-8.7,10.9-15.5,18.9-20.2c6.7-3.9,14.6-5.8,23.6-5.8c3.3,0,6.4,0.3,9.1,0.8
		c2.7,0.6,6.5,1.8,11.5,3.6c2.5,0.9,4.2,1.4,5.1,1.4c0.8,0,1.6-0.4,2.2-1.2c0.6-0.8,1-2.3,1.1-4.7h2.5V448z"/>
</g>
<g>
	
		<linearGradient id="SVGID_1_" gradientUnits="userSpaceOnUse" x1="422.5815" y1="686.4437" x2="123.3457" y2="449.6571" gradientTransform="matrix(1 0 0 -1 0 804)">
		<stop  offset="0" style="stop-color:#1F2A65"/>
		<stop  offset="9.981939e-002" style="stop-color:#212E69"/>
		<stop  offset="0.2044" style="stop-color:#293B74"/>
		<stop  offset="0.3112" style="stop-color:#355088"/>
		<stop  offset="0.4189" style="stop-color:#466DA3"/>
		<stop  offset="0.4888" style="stop-color:#5484B8"/>
		<stop  offset="0.5742" style="stop-color:#446B9A"/>
		<stop  offset="0.7033" style="stop-color:#2F4A72"/>
		<stop  offset="0.8217" style="stop-color:#203256"/>
		<stop  offset="0.9245" style="stop-color:#172344"/>
		<stop  offset="1" style="stop-color:#141E3E"/>
	</linearGradient>
	<path class="st1" d="M310.9,242.7c-20.6-41.4-57.8-62.2-111.6-62.2c-37.2,0-66.3,11.7-87.1,35.2C91.4,239.1,81,267,81,299.2
		c0,32,10.4,59.7,31.2,83.1s49.8,35.2,87.1,35.2c38.6,0,73.8-24,105.8-72h5.8V242.7z M206.2,372.4c-23.7,0-42-7-54.9-20.9
		s-19.4-30.6-19.4-50.1c0-20.2,6.6-37.8,19.9-52.9c13.3-15.1,31.4-22.6,54.4-22.6c40.3,0,68.1,27.8,83.5,83.5
		C267.6,351.4,239.7,372.4,206.2,372.4z"/>
	<g>
		
			<linearGradient id="SVGID_2_" gradientUnits="userSpaceOnUse" x1="508.5212" y1="577.8386" x2="209.2854" y2="341.052" gradientTransform="matrix(1 0 0 -1 0 804)">
			<stop  offset="0" style="stop-color:#1F2A65"/>
			<stop  offset="9.981939e-002" style="stop-color:#212E69"/>
			<stop  offset="0.2044" style="stop-color:#293B74"/>
			<stop  offset="0.3112" style="stop-color:#355088"/>
			<stop  offset="0.4189" style="stop-color:#466DA3"/>
			<stop  offset="0.4888" style="stop-color:#5484B8"/>
			<stop  offset="0.5742" style="stop-color:#446B9A"/>
			<stop  offset="0.7033" style="stop-color:#2F4A72"/>
			<stop  offset="0.8217" style="stop-color:#203256"/>
			<stop  offset="0.9245" style="stop-color:#172344"/>
			<stop  offset="1" style="stop-color:#141E3E"/>
		</linearGradient>
		<path class="st2" d="M415.2,372.4c23.7,0,42-7.1,55-21.2c13-14.1,19.6-31.1,19.6-50.8c0-19.9-6.6-37.3-19.9-52.2
			c-13.3-14.9-31.5-22.3-54.7-22.3c-32,0-59.6,18.8-82.8,56.5C356.7,342.4,384.3,372.4,415.2,372.4z"/>
		
			<linearGradient id="SVGID_3_" gradientUnits="userSpaceOnUse" x1="517.5328" y1="566.4502" x2="218.297" y2="329.6637" gradientTransform="matrix(1 0 0 -1 0 804)">
			<stop  offset="0" style="stop-color:#1F2A65"/>
			<stop  offset="9.981939e-002" style="stop-color:#212E69"/>
			<stop  offset="0.2044" style="stop-color:#293B74"/>
			<stop  offset="0.3112" style="stop-color:#355088"/>
			<stop  offset="0.4189" style="stop-color:#466DA3"/>
			<stop  offset="0.4888" style="stop-color:#5484B8"/>
			<stop  offset="0.5742" style="stop-color:#446B9A"/>
			<stop  offset="0.7033" style="stop-color:#2F4A72"/>
			<stop  offset="0.8217" style="stop-color:#203256"/>
			<stop  offset="0.9245" style="stop-color:#172344"/>
			<stop  offset="1" style="stop-color:#141E3E"/>
		</linearGradient>
		<path class="st3" d="M545.6,160H334.3c-12.9,0-23.4,10.5-23.4,23.4v59.3c0.4,0.8,0.8,1.5,1.2,2.2h6.9
			c32.4-42.9,66.8-64.4,103.2-64.4c37.5,0,66.6,11.7,87.4,35c20.8,23.3,31.2,51,31.2,83c0,32.2-10.5,60.1-31.4,83.6
			c-20.9,23.6-50,35.3-87.2,35.3c-52.4,0-89-24-110.1-72h-1.2v69.1c0,12.9,10.5,23.4,23.4,23.4h211.3c12.9,0,23.4-10.5,23.4-23.4
			V183.4C569,170.5,558.5,160,545.6,160z"/>
	</g>
</g>
<g>
	<path d="M13.5,624.3V638H7.4v-15.1c-4.6,4.6-9,8.1-13.1,10.3l-4.4-4.6c5.9-3,10.9-6.7,15.2-10.9H-8.1V612H7.4v-5.1H-9.3v-5.8h9.4
		l-1-4.3l-1.1-4h-5.2v-5.2H8v-4.3h6.1v4.3h13.1v5.2h-5.3l-2,8.3h8.7v5.8H13.5v5.1h14.3v5.8h-14c4.2,2.6,8.3,5.3,12.2,8.3l-3.6,5.3
		L13.5,624.3z M35.1,577.9h-20v3.2H8.8v-3.2H-9v-5.8H8.8v-3.4h6.4v3.4h20v-3.4h6.4v3.4h17.6v5.8H41.5v3.5h-6.4V577.9z M5.9,601.1H14
		c0.8-2.6,1.5-5.3,2-8.3H3.8L5.9,601.1z M46.4,605.1h-9.2v7.7c0,10.5-2.3,19.1-6.6,25.4l-5.6-3.7l2.8-4.2c2.2-4,3.3-9.8,3.3-17.6
		v-25.3c0-1,0.5-1.6,1.7-1.6c8-0.2,16-1,24-2.6l1.9,5.9c-5.5,1.1-12.6,1.8-21.1,2c-0.2,0-0.4,0.4-0.4,1.1v7h22.1v5.8h-6.9V638h-6.1
		V605.1z"/>
	<path d="M123.9,592.7l-0.4,5.7l-0.5,0.8l-1.1,0.4H75.1c-0.8-0.2-0.9-0.9-0.9-1.8l0.9-5.1H66v-4.9h10l1.2-6.1l0.4-0.6l0.8-0.2h44.9
		c0.9,0.3,1.7,0.5,1.5,1.3l-0.5,5.6h9.6v4.9H123.9z M97,572.8v-4.1h6.3v4.1H130l5,2.6c-0.1,3-0.8,6.5-2.1,10.7l-5.6-1.4
		c0.2-0.8,1.6-5.2,1.2-5.4c0.1-0.5-0.1-0.8-0.7-0.8H73.7c-0.4,0-0.5,0.2-0.5,0.5v6.5h-5.8v-11.4c0-0.8,0.4-1.1,1.1-1.1H97z
		 M110.9,628.2H90.7l1.2,4.1c-7.2,2.7-14.3,4.9-21.5,6.5l-1.3-5.9l16.5-4.7H74.3c-0.5,0-0.8-0.3-0.8-0.8v-24.5
		c0-0.5,0.2-0.8,0.8-0.8H126c0.5,0,0.8,0.2,0.8,0.8v24.5c0,0.5-0.3,0.8-0.8,0.8h-11.3c6.2,2.3,11.3,4.1,15.5,5l-2,5.7
		c-9.6-3.1-16-5.3-19-6.6L110.9,628.2z M79.3,609.5H121v-2.3l-0.3-0.2H79.5c-0.2,0-0.3,0.1-0.2,0.2V609.5z M79.3,616.5H121v-2.7
		H79.3V616.5z M121,620.8H79.3v2.1l0.2,0.3h41.2l0.3-0.3V620.8z M95.8,594.9l0.5-2.3H81l-0.2,1.1c-0.1,0.2-0.2,0.4-0.2,0.5
		c0,0.3,0.2,0.5,0.7,0.7H95.8z M97.2,587.8l0.4-2.3H83.1c-0.7,0-1,0.4-1,1.1l-0.3,1.3H97.2z M102.2,592.7l-0.5,2.3H117
		c0.8-0.1,0.9-0.5,1-2.3H102.2z M103.6,585.5l-0.4,2.3h15.2l0.2-1.3c0-0.7-0.4-1-1.1-1.1H103.6z"/>
	<path d="M150.1,582.8c-2.4,1.9-4.9,3.3-7.4,4.4l-2.9-5.3c8-3.4,11.6-7.7,15.4-13.4l4.9,3c-1.2,2-2.6,3.9-3.8,5.5v13.8h-6.2V582.8z
		 M187.1,628h-24.3l1.4,4c-5.5,2.6-12.5,4.7-20.9,6.5l-1.8-6.2c6.1-1.4,11.3-2.8,15.5-4.2h-8.1c-0.5,0-0.8-0.3-0.8-0.9v-33.7
		c0-0.5,0.3-0.8,0.8-0.8h42.5c-4.2-2.2-8.3-5.8-12.2-10.6l-18.5,2.3l-1.2-6l15.5-2l-3.7-5.6l5.9-2.1l4.6,6.9l12.6-1.6l-0.8-0.5
		l3.3-4.7c3.2,1.8,6.8,4.4,10.7,8l-3.6,4.7c-2.6-2.4-5-4.3-7.1-5.8l0.5,4.1l-11.2,1.4c5.9,5.9,12.4,8.2,14.6,8.2
		c2.7,0,3.2-3.6,3.1-6.5l6.1,0.9c0.2,10.7-3.4,11.9-7.4,11.9c-0.5,0-1.1,0-1.7-0.1v31.6c0,0.6-0.3,0.9-0.8,0.9h-6.9l15.8,4.5
		l-1.8,6.2l-21.2-6.2L187.1,628z M154.2,602.6H195V598l-0.3-0.2h-40.3c-0.2,0-0.3,0.1-0.2,0.2V602.6z M154.2,612.9H195v-5.1h-40.8
		V612.9z M195,618h-40.8v4.5l0.2,0.2h40.3l0.3-0.2V618z"/>
	<path d="M264.2,625.4h-48.4v-5.9h48.4v-4.4l-45.2,1.4l-0.7-5.8l28.7-0.8v-3.3h-24.5c-0.5,0-0.8-0.3-0.8-0.9v-22
		c0-0.5,0.3-0.8,0.8-0.8h24.5V579h-30.5v-5.8h30.5v-4.8h6.1v4.8h30.9v5.8H253v3.9h24.6c0.6,0,0.8,0.3,0.8,0.8v22
		c0,0.8-0.5,0.9-0.9,0.9c2.9,3.3,5.1,6.1,6.6,8.2l-4.8,3.2l-2.4-3.2l-6.7,0.2v4.6h14.3v5.9h-14.3v5.7c0,3.1-1.7,7.4-8.6,7.4
		c-2.7,0-6.2-0.5-10.3-1.7l0.1-6.3l5.7,1.5l3.8,0.5c0.5,0.1,3.1-0.2,3.1-3V625.4z M246.9,592.1v-4.1H228c-0.2,0-0.3,0.1-0.2,0.2v3.8
		H246.9z M246.9,601.4v-4.3h-19.1v4l0.2,0.3H246.9z M240.4,637.3c-2.7-2.5-5.5-4.7-8.1-6.3l4.1-4.9c3.3,2.3,6.2,4.6,8.3,6.7
		L240.4,637.3z M253,588.1v4.1h19.4v-3.8l-0.2-0.2H253z M253,597.1v4.3h19.1l0.2-0.3v-4H253z M270.6,607.2l0.8-0.6H253v3.1l19.1-0.6
		L270.6,607.2z"/>
	<path d="M356.6,634.8c-11.2-2.9-20.6-7.1-28.3-12.3V638h-6.2v-14.9c-10.5,6.3-20.3,10.1-29,11.4l-2.3-6.2
		c10.4-1.5,20.2-5.1,29.3-10.6h-27.2V612h29.3v-4.2h-25.4v-5.2h25.4v-4.5h-27.5v-5.2h16.5c-1.1-2.7-2-5-2.9-6.8H292v-5.8h12.8
		c-1.6-3.3-3.1-5.9-4.5-7.7l5-3.1c1.8,2.4,3.6,5.4,5.3,9.2l-3.2,1.7h8.8v-11.6h5.9v11.6h6.8v-11.6h5.9v11.6h7.2l-2.3-1.7
		c2.9-3.8,4.9-6.8,6.2-9.4l5,3.1c-1.2,2.4-2.9,5.1-5,8H358v5.8h-17l-2.6,6.8h17.3v5.2h-27.4v4.5h25.3v5.2h-25.3v4.2h29.1v5.8h-26
		c7.7,5.3,17.3,9.1,28.3,11.3L356.6,634.8z M317.4,592.9h14.6l2.9-6.8h-20.1L317.4,592.9z"/>
	<path d="M365,633.3c5.3-5,9.2-9.8,11.4-14.5l-9.4-8.2c-0.4-0.5-0.5-1.1-0.5-1.8c0-0.6,0.1-1.3,0.4-2c1.2-3.2,2.9-10.1,5-20.8h-4.6
		v-6.4h5.6l1.4-10.7l6,0.8l-1.1,9.8h9.8c0.9,0,1.4,0.6,1.4,1.7v0.3c-0.7,16.5-2.8,28.5-6.3,35.7l6.4,5.4l-3.4,5.2l-5.6-4.8
		c-2.6,4.7-6.2,9.4-10.7,14L365,633.3z M378.9,612.9c3.5-8.8,4.6-19.7,5-26.9h-5.6l-3.9,17.3c-0.6,1.7-0.9,2.9-0.9,3.9
		c0,0.6,0.2,1.1,0.5,1.4L378.9,612.9z M387.8,629.9c7.2-4.3,13.4-9.6,18.5-16h-14.6v-5.8h17v-5h-8.8c-1.9,0-2.8-1-2.8-2.9v-20.3
		h-5.8v-5.8h5.8v-5.3h5.8v5.3h18.5v-5.3h5.8v5.3h5.3v5.8h-5.3v20.3c0,1.9-1,2.9-2.9,2.9h-9.6v5h18.3v5.8h-16.8
		c4.4,6.5,10.7,12.1,18.8,17l-5,4.3c-9-6.4-12.8-11-15.4-14V638h-6.1v-18.2c-5.4,6.7-11,11.7-16.4,14.9L387.8,629.9z M421.4,585.5
		v-5.6h-18.5v5.6H421.4z M402.9,591.3v5c0,0.7,0.3,1,0.8,1h16.7c0.7,0,1-0.3,1-1v-5H402.9z"/>
	<path d="M506.1,595.4c-11.5-5.3-21.6-11.9-30.4-19.7c-6.2,6.5-16.7,13.1-31.5,19.9l-3.7-5.9c17.2-6.6,28.4-13.7,33.3-20.9l6.2,1.1
		l-0.8,1.4c8.3,7.7,18.6,14,30.8,18.5L506.1,595.4z M456.6,634.2v3.3H450v-30c0-1.5,0.7-2.3,2.3-2.3h47.2c1.5,0,2.3,0.8,2.3,2.3v30
		h-6.7v-3.3H456.6z M454.1,591.8h43.1v6.7h-43.1V591.8z M456.6,627.8h38.5v-15.2c0-0.7-0.3-1-1-1h-36.5c-0.8,0-1.1,0.4-1,1V627.8z"
		/>
	<path d="M547,614.8h-30.8v-6.4H547v-31.1h-28.1v-6.4h62.8v6.4h-28.1v31.1H584v6.4h-30.4v22.9H547V614.8z M530.6,604.5
		c-3.9-8.4-7.6-14.9-10.9-19.4l5.6-3.4c3.7,5.1,7.4,11.7,11,19.7L530.6,604.5z M563.1,601.8c5.3-8,8.9-14.8,11-20.1l5.8,2.9
		c-2.4,6.1-6.2,12.9-11.2,20.5L563.1,601.8z"/>
	<path d="M649.6,592.8l-57.5,4.7l-1.7-6.6l7.1-0.5c5.3-6.5,10.1-13.7,14.7-21.7l5.4,3.4c-2.6,4.9-6.4,10.7-11.5,17.7l38.2-2.8
		c-0.7-1.2-3.9-4.4-9.4-9.5l5-4.4c8.6,8.7,15.4,16.1,20,22.1l-5.2,4.1L649.6,592.8z M604.7,634.2v3.3H598V606c0-1.6,0.8-2.3,2.3-2.3
		h49.8c1.5,0,2.3,0.8,2.3,2.3v31.4h-6.7v-3.3H604.7z M604.7,627.8h41.1v-16.7c0-0.7-0.3-1-1-1h-39.2c-0.8,0-1,0.4-1,1V627.8z"/>
</g>
</svg>
