<?xml version="1.0" encoding="utf-8"?>
<!-- Generator: Adobe Illustrator 19.1.0, SVG Export Plug-In . SVG Version: 6.00 Build 0)  -->
<svg version="1.1" xmlns="http://www.w3.org/2000/svg" xmlns:xlink="http://www.w3.org/1999/xlink" x="0px" y="0px"
	 viewBox="0 0 400 400" style="enable-background:new 0 0 400 400;" xml:space="preserve">
<style type="text/css">
	.st0{display:none;}
	.st1{display:inline;}
	.st2{fill:#1D2087;}
	.st3{fill:#FFFFFF;}
	.st4{fill:#EA6363;}
	.st5{fill:#231815;}
	.st6{font-family:'ArialMT';}
	.st7{font-size:74.3751px;}
	.st8{fill:#00913A;}
	.st9{fill:#006934;}
	.st10{fill:url(#SVGID_1_);}
	.st11{fill:url(#SVGID_2_);}
	.st12{fill:url(#SVGID_3_);}
	.st13{fill:url(#SVGID_4_);}
	.st14{fill:url(#SVGID_5_);}
	.st15{fill:url(#SVGID_6_);}
	.st16{fill:url(#SVGID_7_);}
	.st17{fill:url(#SVGID_8_);}
	.st18{fill:url(#SVGID_9_);}
	.st19{fill:url(#SVGID_10_);}
	.st20{fill:url(#SVGID_11_);}
	.st21{fill:url(#SVGID_12_);}
	.st22{fill:url(#SVGID_13_);}
	.st23{display:inline;fill:#FFFFFF;}
	.st24{fill:#00913A;stroke:#006934;stroke-miterlimit:10;}
	.st25{fill:#00913A;stroke:#00913A;stroke-miterlimit:10;}
	.st26{fill:url(#SVGID_14_);}
	.st27{fill:#00913A;stroke:#FFFFFF;stroke-width:2;stroke-miterlimit:10;}
	.st28{fill:url(#SVGID_15_);stroke:url(#SVGID_16_);stroke-miterlimit:10;}
	.st29{fill:#FFFFFF;stroke:url(#SVGID_17_);stroke-miterlimit:10;}
	.st30{fill:#FFFFFF;stroke:#FFFFFF;stroke-miterlimit:10;}
	.st31{fill:url(#SVGID_18_);}
	.st32{fill:url(#SVGID_19_);}
	.st33{fill:url(#SVGID_20_);}
	.st34{fill:url(#SVGID_21_);}
	.st35{fill:url(#SVGID_22_);}
	.st36{fill:url(#SVGID_23_);}
	.st37{fill:url(#SVGID_24_);}
	.st38{fill:url(#SVGID_25_);}
	.st39{fill:url(#SVGID_26_);}
	.st40{fill:url(#SVGID_27_);}
</style>
<g id="圖層_1" class="st0">
	<g class="st1">
		<g>
			<path class="st2" d="M299.6,92.7c-52.7,0-95.3,42.7-95.3,95.3c0,3.3,0.2,6.6,0.5,9.8h2.7h59.1c6.6,10.3,10.5,22.6,10.5,35.7
				c0,16-5.6,30.6-15,42.1c11.6,5,24.3,7.7,37.7,7.7c52.7,0,95.3-42.7,95.3-95.3C394.9,135.3,352.2,92.7,299.6,92.7z"/>
			<rect x="242" y="146.2" class="st3" width="6.2" height="25.7"/>
			<path class="st4" d="M99.4,92.7c52.7,0,95.3,42.7,95.3,95.3c0,3.3-0.2,6.6-0.5,9.8h-2.7h-59.1c-6.6,10.3-10.5,22.6-10.5,35.7
				c0,16,5.6,30.6,15,42.1c-11.6,5-24.3,7.7-37.7,7.7C46.7,283.3,4,240.6,4,188C4,135.3,46.7,92.7,99.4,92.7z"/>
			<rect x="150.8" y="146.2" class="st3" width="6.2" height="25.7"/>
		</g>
		<text transform="matrix(1 0 0 1 133.3511 266.666)" class="st5 st6 st7">Talk</text>
	</g>
</g>
<g id="圖層_2" class="st0">
	<g class="st1">
		<g>
			<g>
				<circle class="st8" cx="141.8" cy="200.7" r="135"/>
				<path class="st9" d="M141.8,340.5C64.7,340.5,2,277.8,2,200.7S64.7,60.9,141.8,60.9s139.8,62.7,139.8,139.8
					S218.9,340.5,141.8,340.5z M141.8,70.5C70,70.5,11.6,128.9,11.6,200.7S70,330.8,141.8,330.8s130.1-58.4,130.1-130.1
					S213.6,70.5,141.8,70.5z"/>
			</g>
			<g>
				<circle class="st8" cx="141.8" cy="200.7" r="105.8"/>
				<path class="st3" d="M141.8,316.2c-63.7,0-115.5-51.8-115.5-115.5S78.1,85.2,141.8,85.2S257.3,137,257.3,200.7
					S205.5,316.2,141.8,316.2z M141.8,104.5c-53,0-96.2,43.1-96.2,96.2s43.1,96.2,96.2,96.2s96.2-43.1,96.2-96.2
					S194.8,104.5,141.8,104.5z"/>
			</g>
			<g>
				<path class="st3" d="M129.6,118.5V96.8h24.3V118c27.3,3,45.2,16,53.5,38.9l-39.7,12.4c-4.1-10.7-12.3-16.1-24.9-16.1
					c-10.5,0-15.7,3.4-15.7,10.1c0,2.5,0.9,4.5,2.7,6.3c1.8,1.7,6.7,3.5,14.7,5.3c18.3,4,31.5,7.6,39.4,10.8s14.6,8.5,19.9,16.1
					c5.3,7.6,7.9,16.5,7.9,26.8c0,14.4-5.1,26.6-15.4,36.3c-10.3,9.8-24.4,15.7-42.4,17.7v21.9h-24.3v-21.9
					c-30.6-3.6-49.8-19.7-57.7-48.3l44.4-8.2c3.8,13,13.4,19.5,28.8,19.5c12,0,18-3.3,18-9.9c0-3.5-1.4-6.2-4.2-8.1
					c-2.8-1.9-7.7-3.6-14.8-5.1c-27.9-5.7-45.6-12.9-53.1-21.7c-7.5-8.8-11.2-18.9-11.2-30.3c0-12.6,4.1-23.8,12.3-33.5
					C100.2,127.2,112.7,121,129.6,118.5z"/>
			</g>
		</g>
		<g>
			<g>
				
					<radialGradient id="SVGID_1_" cx="285.8318" cy="295.9302" r="95.6651" gradientTransform="matrix(1 0 0 0.9787 0 -1.5006)" gradientUnits="userSpaceOnUse">
					<stop  offset="0" style="stop-color:#0A0E15"/>
					<stop  offset="1" style="stop-color:#000000"/>
				</radialGradient>
				<path class="st10" d="M393.3,368.5c-0.6-88.9-48.4-160.8-107.5-160.8c-59,0-106.9,71.9-107.5,160.8H393.3z"/>
				
					<radialGradient id="SVGID_2_" cx="285.8307" cy="295.9302" r="100.5262" gradientTransform="matrix(1 0 0 1 0 -7.8042)" gradientUnits="userSpaceOnUse">
					<stop  offset="0" style="stop-color:#0A0E15"/>
					<stop  offset="1" style="stop-color:#000000"/>
				</radialGradient>
				<path class="st11" d="M398.2,373.4H173.5l0-4.9c0.6-91.3,51-165.6,112.3-165.6s111.8,74.3,112.3,165.6L398.2,373.4z
					 M183.3,363.7h205.1c-2.2-83.8-47.6-151.1-102.6-151.1S185.5,279.9,183.3,363.7z"/>
			</g>
			<g>
				<path class="st3" d="M362.4,121.8c0-42.3-34.3-76.6-76.6-76.6c-42.3,0-76.6,34.3-76.6,76.6c0,39.1,29.3,71.2,67,75.9v18h19.1
					v-18C333.1,193,362.4,160.8,362.4,121.8z"/>
				<radialGradient id="SVGID_3_" cx="285.8307" cy="130.4139" r="85.8517" gradientUnits="userSpaceOnUse">
					<stop  offset="0" style="stop-color:#0A0E15"/>
					<stop  offset="1" style="stop-color:#000000"/>
				</radialGradient>
				<path class="st12" d="M300.2,220.5h-28.8v-18.7c-38.5-6.9-67-40.6-67-80.1c0-44.9,36.5-81.4,81.4-81.4
					c44.9,0,81.4,36.5,81.4,81.4c0,39.5-28.5,73.2-67,80.1V220.5z M281.1,210.8h9.4v-17.4l4.2-0.5c35.8-4.5,62.8-35,62.8-71.1
					c0-39.6-32.2-71.7-71.7-71.7s-71.7,32.2-71.7,71.7c0,36.1,27,66.7,62.8,71.1l4.2,0.5V210.8z"/>
			</g>
		</g>
	</g>
</g>
<g id="圖層_4">
	<g>
		<g>
			<g>
				<g>
					<g>
						<path class="st3" d="M164.8,378.2H64.7c-9.2,0-16.8-5.3-17.3-12.1l-26-127.8c-0.6-7.4,7.3-13.6,17.3-13.6h152.2
							c10,0,17.9,6.2,17.3,13.6l-26,127.8C181.6,372.9,174,378.2,164.8,378.2z"/>
						<path class="st3" d="M164.8,383.8H64.7c-12.8,0-23.4-7.6-24.2-17.3L14.6,239c-0.4-5.3,1.7-10,5.9-13.7
							c4.6-4,11.2-6.3,18.2-6.3h152.2c7,0,13.6,2.3,18.2,6.3c4.3,3.7,6.4,8.4,6,13.3l-26.1,128.2
							C188.2,376.2,177.6,383.8,164.8,383.8z M38.7,230.2c-3.2,0-6.1,1-8.2,2.7c-1.6,1.4-2.4,3.2-2.3,5l26,127.4
							c0.4,4.3,4.9,7.3,10.5,7.3h100.1c5.6,0,10.2-3,10.5-6.9l26.1-128.2c0.1-1.4-0.7-3.1-2.4-4.6c-2-1.7-5-2.7-8.2-2.7H38.7z"/>
					</g>
					<g>
						<path class="st3" d="M164.8,382.3H64.7c-12.1,0-22.1-7-22.8-16l-26-127.6c-0.4-4.8,1.9-9.4,6.2-12.8
							c4.3-3.4,10.4-5.3,16.7-5.3h152.1c6.3,0,12.4,1.9,16.7,5.3c4.3,3.4,6.6,8,6.2,12.7l-26,128
							C186.9,375.3,176.9,382.3,164.8,382.3z M38.7,228.7c-3.3,0-6.3,1-8.6,2.7c-2.2,1.8-3.4,4.1-3.2,6.5l26,127.6
							c0.4,4.8,5.5,8.4,11.8,8.4h100.1c6.2,0,11.4-3.6,11.8-8.2l26-128c0.2-2.3-1-4.6-3.2-6.3c-2.2-1.8-5.3-2.8-8.6-2.8H38.7z"/>
						<path class="st3" d="M164.8,387.9H64.7c-15.7,0-28.8-9.3-29.7-21.2L9,239.5c-0.6-6.8,2.4-13.1,8.2-17.6
							c5.6-4.4,13.4-6.9,21.4-6.9h152.1c8.1,0,15.9,2.5,21.4,6.9c5.8,4.6,8.8,10.8,8.2,17l-26.1,128.4
							C193.5,378.7,180.5,387.9,164.8,387.9z M38.7,234.3c-1.5,0-2.8,0.4-3.8,1.2c-0.8,0.6-1.2,1.4-1.1,2.2l26,127.2
							c0.2,2.2,2.3,3.6,5,3.6h100.1c2.6,0,4.8-1.4,4.9-3l26.1-128.4c0-0.2-0.4-1-1.2-1.6c-1-0.8-2.3-1.2-3.8-1.2H38.7z"/>
					</g>
				</g>
				<g>
					<polyline class="st3" points="149.4,229 67.5,229 106.6,356.9 149.4,229 67.5,229 					"/>
					<path class="st3" d="M106.3,382.9L59.1,223.4H158L106.3,382.9z M76,234.5l30.9,96.3l33.8-96.3H76z"/>
				</g>
				<g>
					<g>
						<path class="st3" d="M117.3,247.6H97.8c-2.8,0-5.2-1.4-5.5-3.3l-2.8-11.5c-0.3-2.2,2.2-4.1,5.5-4.1h25.1
							c3.3,0,5.8,1.9,5.5,4.1l-2.8,11.5C122.5,246.2,120.1,247.6,117.3,247.6z"/>
						<path class="st3" d="M117.3,253.2H97.8c-6.3,0-11.6-3.5-12.3-8.2L82.8,234c-0.5-2.8,0.5-5.4,2.6-7.3c2.4-2.2,5.9-3.4,9.6-3.4
							h25.1c3.8,0,7.3,1.2,9.6,3.4c2.1,1.9,3.1,4.5,2.7,6.9l-2.9,11.8C128.8,249.7,123.6,253.2,117.3,253.2z M98.7,242h17.6l2-8
							l-21.4,0.3L98.7,242z"/>
					</g>
					<g>
						<path class="st3" d="M114.5,242.6h-14l-11.9,57.3c-0.3,1.2,0.1,2.5,0.9,3.3l15.6,16.5c1.3,1.4,3.5,1.4,4.8,0l15.6-16.5
							c0.8-0.9,1.2-2.1,0.9-3.3L114.5,242.6z"/>
						<path class="st3" d="M107.5,326.4c-3.1,0-5.9-1.2-7.9-3.3l-15.6-16.5c-2-2.1-2.8-4.9-2.2-7.6l12.9-62h25.6l12.9,62
							c0.6,2.7-0.2,5.5-2.2,7.7l-15.6,16.5C113.5,325.2,110.6,326.4,107.5,326.4z M106.3,248.2l-10.9,52.7l12.1,12.3l12.6-13.3
							l-11.3-51.7H106.3z"/>
					</g>
				</g>
			</g>
			<g>
				<g>
					
						<radialGradient id="SVGID_4_" cx="94.6381" cy="301.4121" r="76.3362" gradientTransform="matrix(1.231 0 0 1 -1.7548 0)" gradientUnits="userSpaceOnUse">
						<stop  offset="0" style="stop-color:#0A0E15"/>
						<stop  offset="1" style="stop-color:#000000"/>
					</radialGradient>
					<path class="st13" d="M164.8,378.2H64.7c-9.2,0-16.8-5.3-17.3-12.1l-26-127.8c-0.6-7.4,7.3-13.6,17.3-13.6h152.2
						c10,0,17.9,6.2,17.3,13.6l-26,127.8C181.6,372.9,174,378.2,164.8,378.2z"/>
					
						<radialGradient id="SVGID_5_" cx="94.6414" cy="301.4115" r="80.6458" gradientTransform="matrix(1.231 0 0 1 -1.7548 0)" gradientUnits="userSpaceOnUse">
						<stop  offset="0" style="stop-color:#0A0E15"/>
						<stop  offset="1" style="stop-color:#000000"/>
					</radialGradient>
					<path class="st14" d="M164.8,382.3H64.7c-12.1,0-22.1-7-22.8-16l-26-127.6c-0.4-4.8,1.9-9.4,6.2-12.8
						c4.3-3.4,10.4-5.3,16.7-5.3h152.1c6.3,0,12.4,1.9,16.7,5.3c4.3,3.4,6.6,8,6.2,12.7l-26,128
						C186.9,375.3,176.9,382.3,164.8,382.3z M38.7,228.7c-3.3,0-6.3,1-8.6,2.7c-2.2,1.8-3.4,4.1-3.2,6.5l26,127.6
						c0.4,4.8,5.5,8.4,11.8,8.4h100.1c6.2,0,11.4-3.6,11.8-8.2l26-128c0.2-2.3-1-4.6-3.2-6.3c-2.2-1.8-5.3-2.8-8.6-2.8H38.7z"/>
				</g>
				<polyline class="st8" points="149.4,229 67.5,229 106.6,368.7 149.4,229 67.5,229 				"/>
				<g>
					
						<radialGradient id="SVGID_6_" cx="88.7741" cy="238.2069" r="12.3255" gradientTransform="matrix(1.231 0 0 1 -1.7548 0)" gradientUnits="userSpaceOnUse">
						<stop  offset="0" style="stop-color:#0A0E15"/>
						<stop  offset="1" style="stop-color:#000000"/>
					</radialGradient>
					<path class="st15" d="M117.3,247.6H97.8c-2.8,0-5.2-1.4-5.5-3.3l-2.8-11.5c-0.3-2.2,2.2-4.1,5.5-4.1h25.1
						c3.3,0,5.8,1.9,5.5,4.1l-2.8,11.5C122.5,246.2,120.1,247.6,117.3,247.6z"/>
					
						<radialGradient id="SVGID_7_" cx="88.7741" cy="281.6989" r="29.7144" gradientTransform="matrix(1.231 0 0 1 -1.7548 0)" gradientUnits="userSpaceOnUse">
						<stop  offset="0" style="stop-color:#0A0E15"/>
						<stop  offset="1" style="stop-color:#000000"/>
					</radialGradient>
					<path class="st16" d="M114.5,242.6h-14l-11.9,57.3c-0.3,1.2,0.1,2.5,0.9,3.3l15.6,16.5c1.3,1.4,3.5,1.4,4.8,0l15.6-16.5
						c0.8-0.9,1.2-2.1,0.9-3.3L114.5,242.6z"/>
				</g>
			</g>
		</g>
		<g>
			<g>
				<circle class="st3" cx="102.7" cy="142" r="69.9"/>
				<path class="st3" d="M102.7,217.5c-41.6,0-75.5-33.9-75.5-75.5s33.9-75.5,75.5-75.5s75.5,33.9,75.5,75.5
					S144.4,217.5,102.7,217.5z M102.7,77.6c-35.5,0-64.4,28.9-64.4,64.4c0,35.5,28.9,64.4,64.4,64.4s64.4-28.9,64.4-64.4
					C167.1,106.5,138.2,77.6,102.7,77.6z"/>
			</g>
			<radialGradient id="SVGID_8_" cx="102.7422" cy="141.9672" r="69.9301" gradientUnits="userSpaceOnUse">
				<stop  offset="0" style="stop-color:#0A0E15"/>
				<stop  offset="1" style="stop-color:#000000"/>
			</radialGradient>
			<circle class="st17" cx="102.7" cy="142" r="69.9"/>
		</g>
		<g>
			<g>
				<g>
					<g>
						<path class="st3" d="M333.2,378.2H216.5c-10.7,0-19.5-6.2-20.2-14.1L166,205.3c-0.7-8.6,8.5-15.9,20.2-15.9h177.4
							c11.6,0,20.9,7.3,20.2,15.9l-30.3,158.8C352.7,372,343.9,378.2,333.2,378.2z"/>
						<path class="st3" d="M333.2,383.8H216.5c-14.3,0-26.2-8.5-27-19.4L159.1,206c-0.5-5.8,1.9-11.1,6.6-15.2
							c5.1-4.5,12.6-7,20.4-7h177.4c7.8,0,15.2,2.6,20.4,7c4.7,4.1,7.1,9.4,6.7,14.8l-30.4,159.2
							C359.3,375.3,347.5,383.8,333.2,383.8z M186.1,195c-4,0-7.8,1.3-10.3,3.5c-2.1,1.8-3.2,4.1-3,6.5l30.3,158.4
							c0.4,5.4,6.3,9.3,13.4,9.3h116.7c7.1,0,12.9-3.9,13.3-8.9l30.4-159.2c0.1-2-0.9-4.3-3-6.1c-2.5-2.2-6.3-3.5-10.3-3.5H186.1z"
							/>
					</g>
					<g>
						<path class="st3" d="M333.2,382.3H216.5c-13.6,0-24.9-7.9-25.7-18l-30.3-158.6c-0.4-5.5,2-10.6,6.9-14.4
							c4.9-3.9,11.6-6,18.7-6h177.4c7.2,0,13.8,2.1,18.7,6c4.9,3.9,7.4,8.9,7,14.3l-30.3,159C358.1,374.4,346.8,382.3,333.2,382.3z
							 M186.1,193.5c-4.1,0-7.9,1.2-10.7,3.4c-2.8,2.2-4.2,5.1-4,8.1l30.3,158.6c0.5,5.9,6.9,10.4,14.7,10.4h116.7
							c7.7,0,14.2-4.5,14.6-10.3l30.3-159c0.2-2.8-1.2-5.7-4-7.9c-2.8-2.2-6.6-3.4-10.7-3.4H186.1z"/>
						<path class="st3" d="M333.2,387.9H216.5c-17.2,0-31.5-10.2-32.6-23.2l-30.3-158.2c-0.6-7.5,2.6-14.1,9-19.2
							c6.2-4.9,14.6-7.6,23.5-7.6h177.4c9,0,17.3,2.7,23.5,7.6c6.4,5,9.6,11.7,9.1,18.6l-30.4,159.4
							C364.7,377.8,350.4,387.9,333.2,387.9z M186.1,199.1c-2.3,0-4.4,0.7-5.9,1.8c-0.9,0.7-2,2-1.9,3.8l30.3,158.2
							c0.3,3.3,3.7,5.6,7.9,5.6h116.7c4.1,0,7.6-2.3,7.8-5l30.4-159.4c0-0.8-0.7-2.2-2-3.2c-1.5-1.2-3.6-1.8-5.9-1.8H186.1z"/>
					</g>
				</g>
				<g>
					<polyline class="st3" points="303.2,195.7 221.3,195.7 260.4,335.4 303.2,195.7 221.3,195.7 					"/>
					<path class="st3" d="M260.1,363.4L213,190.2h98.6L260.1,363.4z M229.7,201.3l31,106.2l34-106.2H229.7z"/>
				</g>
				<g>
					<g>
						<path class="st3" d="M270.5,214.3H251c-2.8,0-5.2-1.4-5.5-3.3l-2.8-11.5c-0.3-2.2,2.2-4.1,5.5-4.1h25.1c3.3,0,5.8,1.9,5.5,4.1
							l-2.8,11.5C275.6,212.9,273.3,214.3,270.5,214.3z"/>
						<path class="st3" d="M270.5,219.9H251c-6.3,0-11.5-3.5-12.3-8.2l-2.7-11.1c-0.5-2.9,0.5-5.4,2.6-7.3c2.3-2.2,5.8-3.4,9.6-3.4
							h25.1c3.8,0,7.3,1.2,9.6,3.4c2.1,1.9,3.1,4.5,2.7,6.9l-2.9,11.8C282,216.4,276.7,219.9,270.5,219.9z M251.9,208.7h17.6l1.9-8
							L250,201L251.9,208.7z"/>
					</g>
					<g>
						<path class="st3" d="M267.7,209.3h-14l-11.9,57.3c-0.3,1.2,0.1,2.5,0.9,3.3l15.6,16.5c1.3,1.4,3.5,1.4,4.8,0l15.6-16.5
							c0.8-0.9,1.2-2.1,0.9-3.3L267.7,209.3z"/>
						<path class="st3" d="M260.7,293.1c-3,0-5.9-1.2-7.9-3.2l-15.6-16.5c-2-2.1-2.8-4.9-2.3-7.7l12.9-61.9h25.6l12.9,62
							c0.6,2.7-0.2,5.5-2.2,7.6l-15.6,16.5C266.6,291.9,263.8,293.1,260.7,293.1z M259.5,214.9l-10.9,52.7l12.1,12.4l12.6-13.3
							L262,214.9H259.5z"/>
					</g>
				</g>
			</g>
			<g>
				<g>
					
						<radialGradient id="SVGID_9_" cx="224.6665" cy="283.7903" r="91.4829" gradientTransform="matrix(1.231 0 0 1 -1.7548 0)" gradientUnits="userSpaceOnUse">
						<stop  offset="0" style="stop-color:#0A0E15"/>
						<stop  offset="1" style="stop-color:#000000"/>
					</radialGradient>
					<path class="st18" d="M333.2,378.2H216.5c-10.7,0-19.5-6.2-20.2-14.1L166,205.3c-0.7-8.6,8.5-15.9,20.2-15.9h177.4
						c11.6,0,20.9,7.3,20.2,15.9l-30.3,158.8C352.7,372,343.9,378.2,333.2,378.2z"/>
					
						<radialGradient id="SVGID_10_" cx="224.6736" cy="283.7901" r="95.7841" gradientTransform="matrix(1.231 0 0 1 -1.7548 0)" gradientUnits="userSpaceOnUse">
						<stop  offset="0" style="stop-color:#0A0E15"/>
						<stop  offset="1" style="stop-color:#000000"/>
					</radialGradient>
					<path class="st19" d="M333.2,382.3H216.5c-13.6,0-24.9-7.9-25.7-18l-30.3-158.6c-0.4-5.5,2-10.6,6.9-14.4
						c4.9-3.9,11.6-6,18.7-6h177.4c7.2,0,13.8,2.1,18.7,6c4.9,3.9,7.4,8.9,7,14.3l-30.3,159C358.1,374.4,346.8,382.3,333.2,382.3z
						 M186.1,193.5c-4.1,0-7.9,1.2-10.7,3.4c-2.8,2.2-4.2,5.1-4,8.1l30.3,158.6c0.5,5.9,6.9,10.4,14.7,10.4h116.7
						c7.7,0,14.2-4.5,14.6-10.3l30.3-159c0.2-2.8-1.2-5.7-4-7.9c-2.8-2.2-6.6-3.4-10.7-3.4H186.1z"/>
				</g>
				<polyline class="st8" points="303.2,195.7 221.3,195.7 260.4,335.4 303.2,195.7 221.3,195.7 				"/>
				<g>
					
						<radialGradient id="SVGID_11_" cx="213.2129" cy="204.8982" r="12.3255" gradientTransform="matrix(1.231 0 0 1 -1.7548 0)" gradientUnits="userSpaceOnUse">
						<stop  offset="0" style="stop-color:#0A0E15"/>
						<stop  offset="1" style="stop-color:#000000"/>
					</radialGradient>
					<path class="st20" d="M270.5,214.3H251c-2.8,0-5.2-1.4-5.5-3.3l-2.8-11.5c-0.3-2.2,2.2-4.1,5.5-4.1h25.1c3.3,0,5.8,1.9,5.5,4.1
						l-2.8,11.5C275.6,212.9,273.3,214.3,270.5,214.3z"/>
					
						<radialGradient id="SVGID_12_" cx="213.2129" cy="248.3902" r="29.7144" gradientTransform="matrix(1.231 0 0 1 -1.7548 0)" gradientUnits="userSpaceOnUse">
						<stop  offset="0" style="stop-color:#0A0E15"/>
						<stop  offset="1" style="stop-color:#000000"/>
					</radialGradient>
					<path class="st21" d="M267.7,209.3h-14l-11.9,57.3c-0.3,1.2,0.1,2.5,0.9,3.3l15.6,16.5c1.3,1.4,3.5,1.4,4.8,0l15.6-16.5
						c0.8-0.9,1.2-2.1,0.9-3.3L267.7,209.3z"/>
				</g>
			</g>
		</g>
		<g>
			<g>
				<circle class="st3" cx="267.8" cy="95.2" r="79.7"/>
				<path class="st3" d="M267.8,180.5c-47,0-85.3-38.3-85.3-85.3S220.8,10,267.8,10s85.3,38.3,85.3,85.3S314.9,180.5,267.8,180.5z
					 M267.8,21.1c-40.9,0-74.1,33.3-74.1,74.1s33.3,74.1,74.1,74.1S342,136.1,342,95.2S308.7,21.1,267.8,21.1z"/>
			</g>
			<radialGradient id="SVGID_13_" cx="267.8259" cy="95.2458" r="79.7175" gradientUnits="userSpaceOnUse">
				<stop  offset="0" style="stop-color:#0A0E15"/>
				<stop  offset="1" style="stop-color:#000000"/>
			</radialGradient>
			<circle class="st22" cx="267.8" cy="95.2" r="79.7"/>
		</g>
	</g>
</g>
<g id="圖層_3" class="st0">
	<rect x="151.3" y="-107.3" class="st23" width="36.7" height="37.1"/>
	<g class="st1">
		<g>
			
				<rect x="240.1" y="-147.6" transform="matrix(0.988 -0.1542 0.1542 0.988 24.0439 36.5173)" class="st24" width="14.6" height="21.7"/>
			<g>
				<circle class="st3" cx="247.4" cy="-136.7" r="6.2"/>
				<circle class="st25" cx="247.4" cy="-136.7" r="5.2"/>
				<g>
					<path class="st3" d="M243.5-135.5l-1.1,0.2l-0.2-1.2l1-0.2c-0.1-1.4,0.4-2.3,1.5-2.9l0.9,1.8c-0.5,0.3-0.7,0.7-0.6,1.3
						c0.1,0.5,0.3,0.7,0.6,0.7c0.1,0,0.2-0.1,0.3-0.2c0.1-0.1,0.1-0.4,0.1-0.8c0.1-0.9,0.1-1.6,0.2-2c0.1-0.4,0.3-0.8,0.6-1.1
						c0.3-0.3,0.7-0.5,1.2-0.6c0.7-0.1,1.3,0,1.9,0.5c0.6,0.4,0.9,1.1,1.2,1.9l1.1-0.2l0.2,1.2l-1.1,0.2c0.1,1.5-0.6,2.6-1.9,3.2
						l-0.7-2.1c0.6-0.3,0.9-0.8,0.7-1.6c-0.1-0.6-0.3-0.9-0.6-0.8c-0.2,0-0.3,0.1-0.4,0.3c-0.1,0.2-0.1,0.4-0.1,0.8
						c-0.1,1.4-0.3,2.3-0.7,2.8c-0.4,0.4-0.8,0.7-1.4,0.8c-0.6,0.1-1.2,0-1.7-0.3C244.2-134.2,243.8-134.7,243.5-135.5z"/>
				</g>
			</g>
		</g>
		<g>
			
				<rect x="252" y="-145.7" transform="matrix(0.903 0.4296 -0.4296 0.903 -32.7578 -124.4662)" class="st24" width="14.6" height="21.7"/>
			<g>
				<circle class="st3" cx="259.3" cy="-134.8" r="6.2"/>
				<circle class="st25" cx="259.3" cy="-134.8" r="5.2"/>
				<g>
					<path class="st3" d="M255.4-136l-1-0.5l0.5-1.1l0.9,0.4c0.7-1.2,1.7-1.7,2.9-1.6l-0.3,2c-0.6,0-1,0.2-1.2,0.8
						c-0.2,0.5-0.2,0.8,0.1,0.9c0.1,0.1,0.2,0.1,0.3,0c0.1,0,0.3-0.2,0.5-0.5c0.6-0.7,1-1.2,1.3-1.5c0.3-0.3,0.7-0.5,1.1-0.5
						c0.4-0.1,0.9,0,1.4,0.2c0.6,0.3,1.1,0.8,1.3,1.5c0.2,0.7,0.2,1.4-0.1,2.3l1,0.5l-0.5,1.1l-1-0.5c-0.8,1.3-1.9,1.8-3.4,1.5
						l0.6-2.2c0.7,0.1,1.2-0.2,1.5-0.9c0.3-0.5,0.2-0.9-0.1-1c-0.2-0.1-0.3-0.1-0.5,0c-0.1,0.1-0.3,0.3-0.5,0.6
						c-0.8,1.1-1.5,1.8-2.1,1.9c-0.6,0.1-1.1,0.1-1.6-0.1c-0.6-0.3-1-0.7-1.2-1.3C255.1-134.5,255.1-135.2,255.4-136z"/>
				</g>
			</g>
		</g>
		<g>
			
				<radialGradient id="SVGID_14_" cx="166.5218" cy="-125.6294" r="9.6096" gradientTransform="matrix(1.3397 0 0 0.9551 29.5796 -2.3035)" gradientUnits="userSpaceOnUse">
				<stop  offset="0" style="stop-color:#0A0E15"/>
				<stop  offset="1" style="stop-color:#000000"/>
			</radialGradient>
			<path class="st26" d="M265.6-114.3h-25.8c-0.8,0-1.4-0.6-1.4-1.4v-13.1c0-0.8,0.6-1.4,1.4-1.4h25.8c0.8,0,1.4,0.6,1.4,1.4v13.1
				C267-115,266.4-114.3,265.6-114.3z"/>
			<rect x="238.3" y="-128" class="st3" width="28.7" height="0.9"/>
			<rect x="238.3" y="-126.2" class="st3" width="28.7" height="0.5"/>
		</g>
	</g>
	<g class="st1">
		<g>
			<path class="st2" d="M211.7-69.1c-7.3,0-13.2,5.9-13.2,13.2c0,0.5,0,0.9,0.1,1.4h0.4h8.2c0.9,1.4,1.5,3.1,1.5,5
				c0,2.2-0.8,4.3-2.1,5.8c1.6,0.7,3.4,1.1,5.2,1.1c7.3,0,13.2-5.9,13.2-13.2C225-63.2,219-69.1,211.7-69.1z"/>
			<rect x="203.7" y="-61.7" class="st3" width="0.9" height="3.6"/>
			<path class="st4" d="M183.9-69.1c7.3,0,13.2,5.9,13.2,13.2c0,0.5,0,0.9-0.1,1.4h-0.4h-8.2c-0.9,1.4-1.5,3.1-1.5,5
				c0,2.2,0.8,4.3,2.1,5.8c-1.6,0.7-3.4,1.1-5.2,1.1c-7.3,0-13.2-5.9-13.2-13.2C170.6-63.2,176.6-69.1,183.9-69.1z"/>
			<rect x="191" y="-61.7" class="st3" width="0.9" height="3.6"/>
		</g>
		<text transform="matrix(1 0 0 1 188.6075 -44.9491)" class="st5 st6" style="font-size:10.336px;">Talk</text>
	</g>
	<g class="st1">
		<g>
			<circle class="st24" cx="283.2" cy="-55.9" r="13.9"/>
			<circle class="st27" cx="283.2" cy="-55.9" r="10.9"/>
			<g>
				<path class="st3" d="M281.9-64.4v-2.2h2.5v2.2c2.8,0.3,4.7,1.7,5.5,4l-4.1,1.3c-0.4-1.1-1.3-1.7-2.6-1.7c-1.1,0-1.6,0.3-1.6,1
					c0,0.3,0.1,0.5,0.3,0.6c0.2,0.2,0.7,0.4,1.5,0.5c1.9,0.4,3.3,0.8,4.1,1.1c0.8,0.3,1.5,0.9,2.1,1.7c0.5,0.8,0.8,1.7,0.8,2.8
					c0,1.5-0.5,2.7-1.6,3.8c-1.1,1-2.5,1.6-4.4,1.8v2.3h-2.5v-2.3c-3.2-0.4-5.1-2-6-5l4.6-0.9c0.4,1.3,1.4,2,3,2
					c1.2,0,1.9-0.3,1.9-1c0-0.4-0.1-0.6-0.4-0.8c-0.3-0.2-0.8-0.4-1.5-0.5c-2.9-0.6-4.7-1.3-5.5-2.2c-0.8-0.9-1.2-2-1.2-3.1
					c0-1.3,0.4-2.5,1.3-3.5C278.9-63.5,280.2-64.2,281.9-64.4z"/>
			</g>
		</g>
		<g>
			
				<radialGradient id="SVGID_15_" cx="298.0929" cy="-46.3949" r="9.883" gradientTransform="matrix(1 0 0 0.9787 0 -1.5006)" gradientUnits="userSpaceOnUse">
				<stop  offset="0" style="stop-color:#0A0E15"/>
				<stop  offset="1" style="stop-color:#000000"/>
			</radialGradient>
			
				<radialGradient id="SVGID_16_" cx="298.0929" cy="-46.3949" r="10.3805" gradientTransform="matrix(1 0 0 1 0 -1.5006)" gradientUnits="userSpaceOnUse">
				<stop  offset="0" style="stop-color:#0A0E15"/>
				<stop  offset="1" style="stop-color:#000000"/>
			</radialGradient>
			<path class="st28" d="M309.2-38.6c-0.1-9.2-5-16.6-11.1-16.6c-6.1,0-11,7.4-11.1,16.6H309.2z"/>
			<radialGradient id="SVGID_17_" cx="298.0929" cy="-63.2003" r="8.8691" gradientUnits="userSpaceOnUse">
				<stop  offset="0" style="stop-color:#0A0E15"/>
				<stop  offset="1" style="stop-color:#000000"/>
			</radialGradient>
			<path class="st29" d="M306-64.1c0-4.4-3.5-7.9-7.9-7.9c-4.4,0-7.9,3.5-7.9,7.9c0,4,3,7.4,6.9,7.8v1.9h2v-1.9
				C303-56.7,306-60.1,306-64.1z"/>
		</g>
	</g>
	<g class="st1">
		<g>
			<g>
				<g>
					<g>
						<path class="st30" d="M354-35.7h-7.3c-0.7,0-1.2-0.5-1.3-1.1l-1.9-13.6c0-0.7,0.5-1.2,1.3-1.2h11.1c0.7,0,1.3,0.6,1.3,1.2
							l-1.9,13.6C355.2-36.1,354.7-35.7,354-35.7z"/>
						<path class="st30" d="M354-35.3h-7.3c-0.9,0-1.6-0.6-1.7-1.4l-1.9-13.6c0-0.4,0.1-0.8,0.4-1.2c0.3-0.3,0.8-0.5,1.2-0.5h11.1
							c0.5,0,0.9,0.2,1.2,0.5c0.3,0.3,0.5,0.7,0.4,1.1l-1.9,13.6C355.6-35.9,354.9-35.3,354-35.3z M344.8-51.2
							c-0.2,0-0.5,0.1-0.6,0.2c-0.2,0.2-0.2,0.4-0.2,0.6l1.9,13.6c0,0.4,0.4,0.8,0.9,0.8h7.3c0.5,0,0.8-0.3,0.9-0.7l1.9-13.6
							c0-0.2-0.1-0.4-0.2-0.6c-0.2-0.2-0.4-0.2-0.6-0.2H344.8z"/>
					</g>
					<polyline class="st30" points="352.9,-51.2 346.9,-51.2 349.8,-37.6 352.9,-51.2 346.9,-51.2 					"/>
					<g>
						<path class="st30" d="M350.5-49.5h-1.4c-0.2,0-0.4-0.1-0.4-0.3l-0.2-1c0-0.2,0.2-0.4,0.4-0.4h1.8c0.2,0,0.4,0.2,0.4,0.4
							l-0.2,1C350.9-49.6,350.7-49.5,350.5-49.5z"/>
						<path class="st30" d="M350.3-49.9h-1l-0.9,5.1c0,0.1,0,0.2,0.1,0.3l1.1,1.5c0.1,0.1,0.3,0.1,0.4,0l1.1-1.5
							c0.1-0.1,0.1-0.2,0.1-0.3L350.3-49.9z"/>
					</g>
				</g>
				<circle class="st30" cx="350" cy="-59.6" r="6.3"/>
			</g>
			<g>
				<g>
					<g>
						<radialGradient id="SVGID_18_" cx="350.3469" cy="-43.5967" r="7.3955" gradientUnits="userSpaceOnUse">
							<stop  offset="0" style="stop-color:#0A0E15"/>
							<stop  offset="1" style="stop-color:#000000"/>
						</radialGradient>
						<path class="st31" d="M354-35.7h-7.3c-0.7,0-1.2-0.5-1.3-1.1l-1.9-13.6c0-0.7,0.5-1.2,1.3-1.2h11.1c0.7,0,1.3,0.6,1.3,1.2
							l-1.9,13.6C355.2-36.1,354.7-35.7,354-35.7z"/>
						<radialGradient id="SVGID_19_" cx="350.3472" cy="-43.5968" r="7.7796" gradientUnits="userSpaceOnUse">
							<stop  offset="0" style="stop-color:#0A0E15"/>
							<stop  offset="1" style="stop-color:#000000"/>
						</radialGradient>
						<path class="st32" d="M354-35.3h-7.3c-0.9,0-1.6-0.6-1.7-1.4l-1.9-13.6c0-0.4,0.1-0.8,0.4-1.2c0.3-0.3,0.8-0.5,1.2-0.5h11.1
							c0.5,0,0.9,0.2,1.2,0.5c0.3,0.3,0.5,0.7,0.4,1.1l-1.9,13.6C355.6-35.9,354.9-35.3,354-35.3z M344.8-51.2
							c-0.2,0-0.5,0.1-0.6,0.2c-0.2,0.2-0.2,0.4-0.2,0.6l1.9,13.6c0,0.4,0.4,0.8,0.9,0.8h7.3c0.5,0,0.8-0.3,0.9-0.7l1.9-13.6
							c0-0.2-0.1-0.4-0.2-0.6c-0.2-0.2-0.4-0.2-0.6-0.2H344.8z"/>
					</g>
					<polyline class="st8" points="352.9,-51.2 346.9,-51.2 349.8,-36.5 352.9,-51.2 346.9,-51.2 					"/>
					<g>
						<radialGradient id="SVGID_20_" cx="349.8211" cy="-50.3226" r="1.105" gradientUnits="userSpaceOnUse">
							<stop  offset="0" style="stop-color:#0A0E15"/>
							<stop  offset="1" style="stop-color:#000000"/>
						</radialGradient>
						<path class="st33" d="M350.5-49.5h-1.4c-0.2,0-0.4-0.1-0.4-0.3l-0.2-1c0-0.2,0.2-0.4,0.4-0.4h1.8c0.2,0,0.4,0.2,0.4,0.4
							l-0.2,1C350.9-49.6,350.7-49.5,350.5-49.5z"/>
						<radialGradient id="SVGID_21_" cx="349.8211" cy="-46.4233" r="2.6641" gradientUnits="userSpaceOnUse">
							<stop  offset="0" style="stop-color:#0A0E15"/>
							<stop  offset="1" style="stop-color:#000000"/>
						</radialGradient>
						<path class="st34" d="M350.3-49.9h-1l-0.9,5.1c0,0.1,0,0.2,0.1,0.3l1.1,1.5c0.1,0.1,0.3,0.1,0.4,0l1.1-1.5
							c0.1-0.1,0.1-0.2,0.1-0.3L350.3-49.9z"/>
					</g>
				</g>
				<radialGradient id="SVGID_22_" cx="349.9991" cy="-59.5803" r="6.2696" gradientUnits="userSpaceOnUse">
					<stop  offset="0" style="stop-color:#0A0E15"/>
					<stop  offset="1" style="stop-color:#000000"/>
				</radialGradient>
				<circle class="st35" cx="350" cy="-59.6" r="6.3"/>
			</g>
		</g>
		<g>
			<g>
				<g>
					<g>
						<path class="st30" d="M365.1-35.7h-8.5c-0.8,0-1.4-0.6-1.5-1.3l-2.2-16.4c0-0.8,0.6-1.4,1.5-1.4h12.9c0.8,0,1.5,0.7,1.5,1.4
							l-2.2,16.4C366.5-36.2,365.9-35.7,365.1-35.7z"/>
						<path class="st30" d="M365.1-35.3h-8.5c-1,0-1.8-0.7-1.9-1.6l-2.2-16.3c0-0.5,0.1-0.9,0.5-1.3c0.4-0.3,0.8-0.5,1.4-0.5h12.9
							c0.5,0,1,0.2,1.4,0.5c0.4,0.3,0.5,0.8,0.5,1.3L367-36.9C366.9-36,366.1-35.3,365.1-35.3z M354.4-54.3c-0.3,0-0.6,0.1-0.8,0.3
							c-0.2,0.2-0.3,0.5-0.3,0.7l2.2,16.3c0,0.5,0.5,0.9,1.1,0.9h8.5c0.6,0,1-0.4,1.1-0.9l2.2-16.4c0-0.3-0.1-0.5-0.3-0.7
							c-0.2-0.2-0.5-0.3-0.8-0.3H354.4z"/>
					</g>
					<polyline class="st30" points="362.9,-54.1 357,-54.1 359.8,-39.5 362.9,-54.1 357,-54.1 					"/>
					<g>
						<path class="st30" d="M360.5-52.5h-1.4c-0.2,0-0.4-0.1-0.4-0.3l-0.2-1c0-0.2,0.2-0.4,0.4-0.4h1.8c0.2,0,0.4,0.2,0.4,0.4
							l-0.2,1C360.9-52.6,360.7-52.5,360.5-52.5z"/>
						<path class="st30" d="M360.3-52.9h-1l-0.9,5.1c0,0.1,0,0.2,0.1,0.3l1.1,1.5c0.1,0.1,0.3,0.1,0.4,0l1.1-1.5
							c0.1-0.1,0.1-0.2,0.1-0.3L360.3-52.9z"/>
					</g>
				</g>
				<circle class="st30" cx="360.2" cy="-63.6" r="7.1"/>
			</g>
			<g>
				<g>
					<g>
						<radialGradient id="SVGID_23_" cx="360.8508" cy="-45.1766" r="8.7635" gradientUnits="userSpaceOnUse">
							<stop  offset="0" style="stop-color:#0A0E15"/>
							<stop  offset="1" style="stop-color:#000000"/>
						</radialGradient>
						<path class="st36" d="M365.1-35.7h-8.5c-0.8,0-1.4-0.6-1.5-1.3l-2.2-16.4c0-0.8,0.6-1.4,1.5-1.4h12.9c0.8,0,1.5,0.7,1.5,1.4
							l-2.2,16.4C366.5-36.2,365.9-35.7,365.1-35.7z"/>
						<radialGradient id="SVGID_24_" cx="360.8515" cy="-45.1766" r="9.1468" gradientUnits="userSpaceOnUse">
							<stop  offset="0" style="stop-color:#0A0E15"/>
							<stop  offset="1" style="stop-color:#000000"/>
						</radialGradient>
						<path class="st37" d="M365.1-35.3h-8.5c-1,0-1.8-0.7-1.9-1.6l-2.2-16.3c0-0.5,0.1-0.9,0.5-1.3c0.4-0.3,0.8-0.5,1.4-0.5h12.9
							c0.5,0,1,0.2,1.4,0.5c0.4,0.3,0.5,0.8,0.5,1.3L367-36.9C366.9-36,366.1-35.3,365.1-35.3z M354.4-54.3c-0.3,0-0.6,0.1-0.8,0.3
							c-0.2,0.2-0.3,0.5-0.3,0.7l2.2,16.3c0,0.5,0.5,0.9,1.1,0.9h8.5c0.6,0,1-0.4,1.1-0.9l2.2-16.4c0-0.3-0.1-0.5-0.3-0.7
							c-0.2-0.2-0.5-0.3-0.8-0.3H354.4z"/>
					</g>
					<polyline class="st8" points="362.9,-54.1 357,-54.1 359.8,-39.5 362.9,-54.1 357,-54.1 					"/>
					<g>
						<radialGradient id="SVGID_25_" cx="359.8239" cy="-53.309" r="1.105" gradientUnits="userSpaceOnUse">
							<stop  offset="0" style="stop-color:#0A0E15"/>
							<stop  offset="1" style="stop-color:#000000"/>
						</radialGradient>
						<path class="st38" d="M360.5-52.5h-1.4c-0.2,0-0.4-0.1-0.4-0.3l-0.2-1c0-0.2,0.2-0.4,0.4-0.4h1.8c0.2,0,0.4,0.2,0.4,0.4
							l-0.2,1C360.9-52.6,360.7-52.5,360.5-52.5z"/>
						<radialGradient id="SVGID_26_" cx="359.8239" cy="-49.4097" r="2.6641" gradientUnits="userSpaceOnUse">
							<stop  offset="0" style="stop-color:#0A0E15"/>
							<stop  offset="1" style="stop-color:#000000"/>
						</radialGradient>
						<path class="st39" d="M360.3-52.9h-1l-0.9,5.1c0,0.1,0,0.2,0.1,0.3l1.1,1.5c0.1,0.1,0.3,0.1,0.4,0l1.1-1.5
							c0.1-0.1,0.1-0.2,0.1-0.3L360.3-52.9z"/>
					</g>
				</g>
				<radialGradient id="SVGID_27_" cx="360.2423" cy="-63.6343" r="7.1471" gradientUnits="userSpaceOnUse">
					<stop  offset="0" style="stop-color:#0A0E15"/>
					<stop  offset="1" style="stop-color:#000000"/>
				</radialGradient>
				<circle class="st40" cx="360.2" cy="-63.6" r="7.1"/>
			</g>
		</g>
	</g>
</g>
</svg>
