<?xml version="1.0" encoding="utf-8"?>
<!-- Generator: Adobe Illustrator 19.1.0, SVG Export Plug-In . SVG Version: 6.00 Build 0)  -->
<svg version="1.1" id="圖層_2" xmlns="http://www.w3.org/2000/svg" xmlns:xlink="http://www.w3.org/1999/xlink" x="0px" y="0px"
	 viewBox="0 0 500 500" style="enable-background:new 0 0 500 500;" xml:space="preserve">
<style type="text/css">
	.st0{fill:#171C61;}
</style>
<g>
	<path class="st0" d="M250.8,126.7c19.5-53.7,67.9-79.5,122.2-79.5c64.9,0,114.5,46.6,114.5,102.8c0,67.9-43.1,118-87.3,164.1
		c-42.5,44-127.5,121-149.3,139.8h-1.2c-21.8-18.7-106.2-95.7-148.7-139.8C56.7,268,13.6,217.9,13.6,150
		c0-57.2,51.3-102.8,115.1-102.8c53.7,0,101.5,25.8,121,79.5H250.8z"/>
</g>
</svg>
