<?xml version="1.0" encoding="utf-8"?>
<!-- Generator: Adobe Illustrator 19.1.0, SVG Export Plug-In . SVG Version: 6.00 Build 0)  -->
<svg version="1.1" id="圖層_1" xmlns="http://www.w3.org/2000/svg" xmlns:xlink="http://www.w3.org/1999/xlink" x="0px" y="0px"
	 viewBox="0 0 400 400" style="enable-background:new 0 0 400 400;" xml:space="preserve">
<style type="text/css">
	.st0{fill:#1D2087;}
	.st1{fill:#FFFFFF;}
	.st2{fill:#EA6363;}
	.st3{fill:#231815;}
	.st4{font-family:'ArialMT';}
	.st5{font-size:74.3751px;}
</style>
<g>
	<g>
		<path class="st0" d="M299.6,92.7c-52.7,0-95.3,42.7-95.3,95.3c0,3.3,0.2,6.6,0.5,9.8h2.7h59.1c6.6,10.3,10.5,22.6,10.5,35.7
			c0,16-5.6,30.6-15,42.1c11.6,5,24.3,7.7,37.7,7.7c52.7,0,95.3-42.7,95.3-95.3C394.9,135.3,352.2,92.7,299.6,92.7z"/>
		<rect x="242" y="146.2" class="st1" width="6.2" height="25.7"/>
		<path class="st2" d="M99.4,92.7c52.7,0,95.3,42.7,95.3,95.3c0,3.3-0.2,6.6-0.5,9.8h-2.7h-59.1c-6.6,10.3-10.5,22.6-10.5,35.7
			c0,16,5.6,30.6,15,42.1c-11.6,5-24.3,7.7-37.7,7.7C46.7,283.3,4,240.6,4,188C4,135.3,46.7,92.7,99.4,92.7z"/>
		<rect x="150.8" y="146.2" class="st1" width="6.2" height="25.7"/>
	</g>
	<text transform="matrix(1 0 0 1 133.3511 266.666)" class="st3 st4 st5">Talk</text>
</g>
</svg>
