<?xml version="1.0" encoding="utf-8"?>
<!-- Generator: Adobe Illustrator 19.1.0, SVG Export Plug-In . SVG Version: 6.00 Build 0)  -->
<svg version="1.1" xmlns="http://www.w3.org/2000/svg" xmlns:xlink="http://www.w3.org/1999/xlink" x="0px" y="0px"
	 viewBox="0 0 800 800" style="enable-background:new 0 0 800 800;" xml:space="preserve">
<style type="text/css">
	.st0{display:none;}
	.st1{display:inline;}
	.st2{fill:#81C2C3;}
	.st3{fill:none;stroke:url(#SVGID_1_);stroke-miterlimit:10;}
	.st4{fill:none;stroke:url(#SVGID_2_);stroke-miterlimit:10;}
	.st5{fill:#FFFFFF;}
	.st6{fill:#69C8EC;}
	.st7{fill-rule:evenodd;clip-rule:evenodd;fill:#81C2C3;}
	.st8{fill-rule:evenodd;clip-rule:evenodd;fill:#FFFFFF;}
	.st9{fill-rule:evenodd;clip-rule:evenodd;fill:#F2A900;}
	.st10{fill:#F2A900;}
</style>
<g id="圖層_1" class="st0">
	<g class="st1">
		<path class="st2" d="M611.8,288.4c-78.2,0-141.6,71.6-141.6,159.9c0,88.3,63.4,159.9,141.6,159.9c78.2,0,141.6-71.6,141.6-159.9
			C753.4,360,690,288.4,611.8,288.4z M611.8,575.4c-62.2,0-117.8-56.9-117.8-127.1c0-70.2,55.6-127.1,117.8-127.1
			c62.2,0,112.6,56.9,112.6,127.1C724.4,518.5,674,575.4,611.8,575.4z"/>
		<g>
			<radialGradient id="SVGID_1_" cx="48.9491" cy="689.2347" r="0" gradientUnits="userSpaceOnUse">
				<stop  offset="0" style="stop-color:#0A0E15"/>
				<stop  offset="1" style="stop-color:#000000"/>
			</radialGradient>
			<path class="st3" d="M48.9,689.2"/>
			
				<radialGradient id="SVGID_2_" cx="-25.0752" cy="861.4112" r="0" gradientTransform="matrix(0.95 -0.3124 0.3124 0.95 -196.6085 -136.182)" gradientUnits="userSpaceOnUse">
				<stop  offset="0" style="stop-color:#0A0E15"/>
				<stop  offset="1" style="stop-color:#000000"/>
			</radialGradient>
			<path class="st4" d="M48.6,690"/>
			<g>
				<path class="st2" d="M272.4,397.7L272.4,397.7c-68.2,0-148,130.5-150.1,291.2l200.3,97.7l197.5-109.1L384.2,386L272.4,397.7z"/>
				<polygon class="st5" points="520.2,677.5 322.7,786.7 272.4,397.7 384.2,386 				"/>
			</g>
			<circle class="st5" cx="291.8" cy="212.1" r="197.1"/>
			<path class="st2" d="M213.9,340.6c-63.5-108.7-26.8-248.3,82-311.8c7.7-4.5,15.5-8.4,23.4-11.9c-42.4-6-87,1.6-126.8,24.9
				c-94,54.9-125.7,175.5-70.9,269.5c33.4,57.2,91.2,91.3,152.6,96.9C250.5,390.6,229.8,367.9,213.9,340.6z"/>
			<path class="st5" d="M145.8,228c-22.1,8.4-33.5,33-25.5,55.3c8,22.3,32.4,34.1,54.8,26.5L145.8,228z"/>
			<g>
				<g>
					<path class="st2" d="M366,442.3c-7.7,1.9-15.5,4-23.2,6.2c-1.6,0.5-3.4-0.4-4.3-2c-5.4-10.2-10.9-20.7-16.3-31.5
						c-1.2-2.3-0.2-5,1.9-5.5c11.9-2.7,23.8-5.1,35.7-7.2c2.2-0.4,4.5,1.5,4.8,3.8c1.3,10.9,2.6,21.8,3.9,32.5
						C368.6,440.4,367.6,441.9,366,442.3z"/>
					<path class="st2" d="M366.1,448.8c-6.5,1.7-12.9,3.5-19.4,5.4c1.6,33.5,3.2,66.7,4.7,99.5c15.5,6,31,11.2,46.4,15.7
						c7.6-15.9,15.2-31.2,22.8-45.7C402.5,501.6,384.3,476.7,366.1,448.8z"/>
				</g>
			</g>
		</g>
		<path class="st5" d="M589.4,293.3c-77.1,0-139.6,72-139.6,160.8c0,88.8,62.5,160.8,139.6,160.8c77.1,0,139.6-72,139.6-160.8
			C729.1,365.3,666.6,293.3,589.4,293.3z M589.4,582c-61.3,0-111-57.3-111-127.9c0-70.6,49.7-127.9,111-127.9
			c61.3,0,111,57.3,111,127.9C700.5,524.7,650.8,582,589.4,582z"/>
		<g>
			<path class="st2" d="M606.4,538.1h-4.7c-10.7,0-19.4-8.7-19.4-19.4v-138c0-10.7,8.7-19.4,19.4-19.4h4.7
				c10.7,0,19.4,8.7,19.4,19.4v138C625.8,529.4,617.1,538.1,606.4,538.1z"/>
			<path class="st2" d="M515.7,452v-4.7c0-10.7,8.7-19.4,19.4-19.4h138c10.7,0,19.4,8.7,19.4,19.4v4.7c0,10.7-8.7,19.4-19.4,19.4
				h-138C524.4,471.4,515.7,462.7,515.7,452z"/>
		</g>
		<polygon class="st2" points="662.3,441.6 508.1,443 523.5,431.8 674.2,428 		"/>
		<polygon class="st2" points="598,548.6 614,366.3 625.2,381.7 616.3,535.4 		"/>
		<polygon class="st6" points="588.2,520.5 572.9,377.6 588.4,366.7 601.7,532.4 		"/>
		<polygon class="st6" points="667.2,480.1 520.1,481.3 535.4,470.1 684.7,467.5 		"/>
		<g>
			<path class="st5" d="M589,550.6h-4.7c-10.7,0-19.4-8.7-19.4-19.4v-138c0-10.7,8.7-19.4,19.4-19.4h4.7c10.7,0,19.4,8.7,19.4,19.4
				v138C608.4,541.9,599.7,550.6,589,550.6z"/>
			<path class="st5" d="M498.2,464.6v-4.7c0-10.7,8.7-19.4,19.4-19.4h138c10.7,0,19.4,8.7,19.4,19.4v4.7c0,10.7-8.7,19.4-19.4,19.4
				h-138C507,484,498.2,475.3,498.2,464.6z"/>
		</g>
	</g>
</g>
<g id="圖層_2" class="st0">
	<g class="st1">
		<g>
			<path class="st5" d="M459.8,164L118.3,22.8c0,0-211,523.9,166.3,743.8c0,0,173.4,25,370.1-200.3
				C654.7,566.4,370.4,453.7,459.8,164z"/>
			<path class="st2" d="M66.2,233.6c0,0-13.4,246.7,344,397.6c0,0-144.8,61.7-125.6,135.4C284.6,766.6,8.6,649.3,66.2,233.6z"/>
		</g>
		<polygon class="st2" points="418.9,282.1 325.3,281.3 344,148.7 431.5,180.3 		"/>
		<polygon class="st2" points="286.5,411.9 95.6,429.6 98.4,291.8 288.3,306.7 		"/>
		<polygon class="st2" points="426.1,398.9 300.4,411 300.4,307.6 421.5,313.2 		"/>
		
			<ellipse transform="matrix(0.9829 0.1844 -0.1844 0.9829 43.1928 -67.7151)" class="st5" cx="385.7" cy="198.4" rx="23.1" ry="25.4"/>
		
			<ellipse transform="matrix(0.9829 0.1844 -0.1844 0.9829 42.1329 -65.7896)" class="st2" cx="374.8" cy="193.7" rx="3.5" ry="3.9"/>
		
			<ellipse transform="matrix(0.9829 0.1844 -0.1844 0.9829 43.2653 -70.0833)" class="st2" cx="398.5" cy="197.6" rx="3.5" ry="3.9"/>
		<path class="st5" d="M409.1,282c2.3-25.9-12-54.2-28.3-56.1c-19.4-2.3-45.2,22.2-47.2,55.5L409.1,282z"/>
		<path class="st2" d="M370.8,197.9c-0.9,8.2,4.7,15.7,12.9,17c8.2,1.3,15.9-4.2,17.5-12.3L370.8,197.9z"/>
		<path class="st2" d="M311.7,163L143,103.9c-5.3-1.9-8.1-7.7-6.3-13v0c1.9-5.3,7.7-8.1,13-6.3l168.7,59.1c5.3,1.9,8.1,7.7,6.3,13
			l0,0C322.9,162,317,164.9,311.7,163z"/>
		<path class="st2" d="M431.7,419.9l-279.8,39.5c-2.8,0.4-5.4-1.6-5.8-4.3l0,0c-0.4-2.8,1.6-5.4,4.3-5.8l279.8-39.5
			c2.8-0.4,5.4,1.6,5.8,4.3v0C436.4,416.9,434.5,419.5,431.7,419.9z"/>
		<path class="st2" d="M442.6,439.9L165.9,497c-2.8,0.6-5.5-1.2-6-4l0,0c-0.6-2.8,1.2-5.5,4-6l276.7-57.1c2.8-0.6,5.5,1.2,6,4v0
			C447.1,436.6,445.3,439.3,442.6,439.9z"/>
		<path class="st2" d="M315.4,501.4l-130.8,36.8c-1.9,0.5-4-0.6-4.5-2.5l-0.8-2.8c-0.5-1.9,0.6-4,2.5-4.5l130.8-36.8
			c1.9-0.5,4,0.6,4.5,2.5l0.8,2.8C318.5,498.8,317.3,500.9,315.4,501.4z"/>
		<path class="st2" d="M454,464.4l-118.2,32c-1.8,0.5-3.8-0.6-4.3-2.4l-0.9-3.2c-0.5-1.8,0.6-3.8,2.4-4.3l118.2-32
			c1.8-0.5,3.8,0.6,4.3,2.4l0.9,3.2C457,461.9,455.9,463.9,454,464.4z"/>
		<path class="st2" d="M481.2,489.6l-270.6,81.2c-2.7,0.8-5.6-0.7-6.4-3.4l0,0c-0.8-2.7,0.7-5.6,3.4-6.4l270.6-81.2
			c2.7-0.8,5.6,0.7,6.4,3.4l0,0C485.5,486,483.9,488.8,481.2,489.6z"/>
		<path class="st2" d="M526.5,541.8L269,657.9c-2.6,1.2-5.6,0-6.8-2.6l0,0c-1.2-2.6,0-5.6,2.6-6.8l257.6-116.1
			c2.6-1.2,5.6,0,6.8,2.6l0,0C530.3,537.6,529.1,540.6,526.5,541.8z"/>
		<path class="st2" d="M368.9,562l-128.8,43.4c-1.9,0.6-4-0.4-4.6-2.3l-0.9-2.8c-0.6-1.9,0.4-4,2.3-4.6l128.8-43.4
			c1.9-0.6,4,0.4,4.6,2.3l0.9,2.8C371.8,559.2,370.8,561.3,368.9,562z"/>
		<path class="st2" d="M502.8,518.2l-114.8,37.4c-1.8,0.6-3.8-0.4-4.4-2.2l-1-3.1c-0.6-1.8,0.4-3.8,2.2-4.4l114.8-37.4
			c1.8-0.6,3.8,0.4,4.4,2.2l1,3.1C505.6,515.6,504.6,517.6,502.8,518.2z"/>
		<path class="st2" d="M210.9,164.5l-79.2-24.9c-5.4-1.7-8.4-7.4-6.7-12.8l0,0c1.7-5.4,7.4-8.4,12.8-6.7L217,145
			c5.4,1.7,8.4,7.4,6.7,12.8l0,0C222,163.1,216.2,166.1,210.9,164.5z"/>
		<path class="st2" d="M302.9,193.3L239,172.7c-5.3-1.7-8.3-7.5-6.6-12.9v0c1.7-5.3,7.5-8.3,12.9-6.6l63.8,20.6
			c5.3,1.7,8.3,7.5,6.6,12.9v0C314,192.1,308.2,195,302.9,193.3z"/>
		<path class="st2" d="M295,225.4l-172.5-47.1c-5.4-1.5-8.6-7.1-7.2-12.5l0,0c1.5-5.4,7.1-8.6,12.5-7.2l172.5,47.1
			c5.4,1.5,8.6,7.1,7.2,12.5v0C306.1,223.6,300.4,226.8,295,225.4z"/>
		<path class="st2" d="M195.3,234l-80.8-18.6c-5.5-1.3-8.9-6.8-7.7-12.2v0c1.3-5.5,6.8-8.9,12.2-7.7l80.8,18.6
			c5.5,1.3,8.9,6.8,7.7,12.2v0C206.3,231.8,200.8,235.2,195.3,234z"/>
		<path class="st2" d="M290.5,257.2l-65.4-15c-5.5-1.3-8.9-6.8-7.7-12.2v0c1.3-5.5,6.8-8.9,12.2-7.7l65.4,15
			c5.5,1.3,8.9,6.8,7.7,12.2v0C301.5,255.1,296,258.5,290.5,257.2z"/>
		<path class="st2" d="M189.7,274.7l-82.2-11.3c-5.6-0.8-9.5-5.9-8.7-11.5v0c0.8-5.6,5.9-9.5,11.5-8.7l82.2,11.3
			c5.6,0.8,9.5,5.9,8.7,11.5v0C200.4,271.6,195.3,275.5,189.7,274.7z"/>
		<path class="st2" d="M286.6,289.4l-66.5-9.1c-5.6-0.8-9.5-5.9-8.7-11.5l0,0c0.8-5.6,5.9-9.5,11.5-8.7l66.5,9.1
			c5.6,0.8,9.5,5.9,8.7,11.5v0C297.4,286.2,292.2,290.2,286.6,289.4z"/>
		<g>
			<g>
				<path class="st2" d="M755.3,414.4c18.7-5.1,29.7-24.5,24.6-43.1c-0.5-2-9.2-32.6-43.1-24.6l-21.2,5.8l0.7,2.5l-22.8,6.3l0.3,1.2
					l-324.4,114c-0.3,0.1-0.5,0.3-0.7,0.5l-27,33.4c-0.7,0.9-0.2,2.2,0.9,2.5l37.7,7.6c0.2,0,0.5,0,0.7,0l329.3-97.5l0.3,1.2
					l22.8-6.3l0.7,2.5L755.3,414.4z"/>
				<g>
					<g>
						<polygon class="st2" points="381.5,515.6 376.9,498.8 700.7,383.3 710.3,418.1 						"/>
					</g>
					<path class="st5" d="M345.2,509.4l22.8-24.2c0.6-0.6,1.6-0.4,1.9,0.5l7.8,28.3c0.2,0.8-0.4,1.5-1.2,1.4l-30.6-4.1
						C344.9,511.1,344.6,510.1,345.2,509.4z"/>
					<g>
						<g>
							<path class="st5" d="M718.3,361.3l9.9,35.9c0.3,1.1-0.3,2.2-1.4,2.5l-3.9,1.1c-1.1,0.3-2.2-0.3-2.5-1.4l-9.9-35.9
								c-0.3-1.1,0.3-2.2,1.4-2.5l3.9-1.1C716.8,359.5,718,360.2,718.3,361.3z"/>
							<path class="st5" d="M707,364.2l10,36.2c0.3,1-0.3,2.1-1.3,2.3l-4.2,1.2c-1,0.3-2.1-0.3-2.3-1.3l-10-36.2
								c-0.3-1,0.3-2.1,1.3-2.3l4.2-1.2C705.7,362.6,706.7,363.2,707,364.2z"/>
						</g>
					</g>
					<g>
						<path class="st5" d="M737.3,414.6l15-4.1c15.5-4.3,26.4-19.3,23.6-35.2c-3.2-17.9-21.1-29-38.3-24.3l-16.6,4.6
							c-0.1,0-0.2,0.2-0.2,0.3l16.1,58.5C737,414.6,737.1,414.7,737.3,414.6z"/>
						<path class="st2" d="M775.9,372.3c-0.5-1.7-1.2-3.3-1.9-4.9c1.3,14.5-8,28.5-22.7,32.5l-17.1,4.7l2.8,10.1l17.1-4.7
							C770.6,405.5,780.4,388.5,775.9,372.3z"/>
					</g>
				</g>
			</g>
			<polygon class="st5" points="377.2,496.2 372.9,480.5 694.6,368.7 701,394.7 			"/>
		</g>
	</g>
</g>
<g id="圖層_3">
	<g>
		<g>
			<g>
				<g>
					<ellipse class="st5" cx="587.4" cy="553.2" rx="190.2" ry="162.1"/>
					<path class="st2" d="M727.1,443.2c14.4,22.8,22.7,49,22.7,76.8c0,89.5-85.1,162.1-190.2,162.1c-55.2,0-104.9-20.1-139.7-52.1
						c32.1,50.8,95.1,85.3,167.5,85.3c105,0,190.2-72.6,190.2-162.1C777.6,510.7,758.4,472.1,727.1,443.2z"/>
				</g>
				<path class="st2" d="M482.6,468c0.9,13.5,14.1,24.2,30.4,24.2c16.3,0,29.5-10.7,30.4-24.2H482.6z"/>
				<circle class="st2" cx="465.8" cy="460.4" r="11.7"/>
				<circle class="st2" cx="565.4" cy="460" r="11.7"/>
			</g>
			<g>
				<g>
					<path class="st2" d="M352.7,566.2v39.9c0,0,38.6-4,38.6-53.2C391.3,552.9,378,578.2,352.7,566.2z"/>
					<g>
						<path class="st2" d="M319.5,651.3H78.8c-20.9,0-38-17.1-38-38V493c0-20.9,17.1-38,38-38h240.7c20.9,0,38,17.1,38,38v120.4
							C357.5,634.2,340.4,651.3,319.5,651.3z"/>
						<g>
							<circle class="st5" cx="199.1" cy="553.2" r="12.5"/>
							<g>
								<circle class="st5" cx="145" cy="553.2" r="12.5"/>
								<circle class="st5" cx="253.2" cy="553.2" r="12.5"/>
							</g>
						</g>
					</g>
				</g>
				<path class="st5" d="M88.2,597.4v-47.7c0-6.3-5.1-11.4-11.4-11.4h0c-6.3,0-11.4,5.1-11.4,11.4v59.1v11.4
					c0,6.3,5.1,11.4,11.4,11.4h11.4h59.1c6.3,0,11.4-5.1,11.4-11.4l0,0c0-6.3-5.1-11.4-11.4-11.4H99.5
					C93.3,608.7,88.2,603.7,88.2,597.4z"/>
			</g>
		</g>
		<g>
			<g>
				<g>
					<ellipse class="st5" cx="231.3" cy="254.8" rx="190.2" ry="162.1"/>
					<path class="st2" d="M75.4,272c0-89.5,85.1-162.1,190.2-162.1c28,0,54.6,5.2,78.6,14.5c-31.6-19.9-70.6-31.6-112.8-31.6
						c-105,0-190.2,72.6-190.2,162.1c0,65.6,45.8,122.1,111.6,147.6C105.9,372.9,75.4,325.5,75.4,272z"/>
				</g>
				<path class="st2" d="M277.3,366.4c4.7,12,20.4,17.7,35.9,12.8c15.5-4.9,25.1-18.6,22-31.1L277.3,366.4z"/>
				<circle class="st2" cx="244.3" cy="361.9" r="11.7"/>
				<circle class="st2" cx="355.9" cy="326.8" r="11.7"/>
			</g>
			<g>
				<g>
					<g>
						<path class="st2" d="M739.6,353H498.8c-20.9,0-38-17.1-38-38V194.7c0-20.9,17.1-38,38-38h240.7c20.9,0,38,17.1,38,38V315
							C777.6,335.9,760.5,353,739.6,353z"/>
						<path class="st2" d="M467.1,225.1v-39.9c0,0-38.6,4-38.6,53.2C428.5,238.4,441.9,213.2,467.1,225.1z"/>
					</g>
					<g>
						<circle class="st5" cx="619.2" cy="254.8" r="12.5"/>
						<g>
							<circle class="st5" cx="565.1" cy="254.8" r="12.5"/>
							<circle class="st5" cx="673.3" cy="254.8" r="12.5"/>
						</g>
					</g>
				</g>
				<path class="st5" d="M734.7,208.8v47.7c0,6.3,5.1,11.4,11.4,11.4h0c6.3,0,11.4-5.1,11.4-11.4v-59.1V186
					c0-6.3-5.1-11.4-11.4-11.4h-11.4h-59.1c-6.3,0-11.4,5.1-11.4,11.4v0c0,6.3,5.1,11.4,11.4,11.4h47.7
					C729.6,197.4,734.7,202.5,734.7,208.8z"/>
			</g>
		</g>
	</g>
</g>
<g id="圖層_4" class="st0">
	<g class="st1">
		<path class="st7" d="M307.3,673.1c96,0,174.3-37,174.3-82.4c0-45.4-78.3-82.4-174.3-82.4c-96,0-174.3,37-174.3,82.4
			C133,636,211.3,673.1,307.3,673.1z"/>
		<rect x="133" y="556.7" class="st7" width="348.5" height="33.9"/>
		<g>
			<path class="st7" d="M307.3,639.2c96,0,174.3-37,174.3-82.4c0-45.4-78.3-82.4-174.3-82.4c-96,0-174.3,37-174.3,82.4
				C133,602.1,211.3,639.2,307.3,639.2z"/>
			<path class="st8" d="M307.3,623.2c83.4,0,151.5-29.8,151.5-66.4c0-36.6-68-66.4-151.5-66.4c-83.4,0-151.5,29.8-151.5,66.4
				C155.8,593.3,223.8,623.2,307.3,623.2z"/>
			<path class="st2" d="M324.2,517.7c7.1,0.9,13.1,2.5,17.9,4.6c6.6,3,10.8,7,12.7,12l-26.8,1.7c-0.7-1.8-2-3.3-3.8-4.5V517.7
				L324.2,517.7z M324.2,548.8c12.1,2,20.7,4.4,25.7,7.2c6.1,3.5,9.2,7.9,9.2,13.3c0,6-3.9,11.1-11.6,15.3c-6,3.2-13.7,5.4-23.3,6.7
				v-11.9c1.5-0.5,2.8-1.1,4-1.7c3.3-1.9,5-4,5-6.5c0-2.2-1.4-4.2-4.2-5.8c-1.2-0.7-2.8-1.4-4.8-1.9V548.8z M299.9,580.4v-21
				c-2.4-0.3-4.7-0.7-6.8-1.1v-15.2c1.9,0.7,4.2,1.4,6.8,1.9v-17.3c-2.6,0.4-4.9,1-6.8,1.8v-12.2c2.2-0.2,4.5-0.4,6.8-0.5v-5h15.3v5
				c3.2,0.2,6.2,0.5,9,0.8v13.7c-2.2-1.5-5.2-2.7-9-3.5v19.6c3.2,0.4,6.2,0.8,9,1.3v14.5c-2.4-0.7-5.4-1.3-9-1.8v19.5
				c3.4-0.3,6.4-0.9,9-1.7v11.9c-2.8,0.4-5.8,0.7-9,0.9v9.4h-15.3v-9.1c-2.4-0.1-4.6-0.3-6.8-0.6v-13.7
				C295.2,579.1,297.4,579.9,299.9,580.4z M293,558.4c-10.4-1.8-18.3-4.3-23.6-7.4c-6.4-3.8-9.7-8.4-9.7-13.8
				c0-5.5,3.7-10.1,11-13.8c5.9-3,13.4-5,22.4-5.9v12.2c-1.2,0.5-2.2,1-3.1,1.6c-2.5,1.6-3.7,3.4-3.7,5.3c0,1.8,1.1,3.4,3.4,4.9
				c1,0.6,2.1,1.2,3.5,1.8V558.4L293,558.4z M293,591.9c-9.1-1-16.8-3-23-5.9c-7.6-3.6-12.5-8.7-14.6-15.3l27.7-1.4
				c1.1,2.7,3.3,5,6.4,6.9c1.1,0.7,2.3,1.3,3.5,1.9V591.9z"/>
		</g>
		<path class="st7" d="M424.8,629.2c96,0,174.3-37,174.3-82.4c0-45.4-78.3-82.4-174.3-82.4c-96,0-174.3,37-174.3,82.4
			C250.5,592.1,328.8,629.2,424.8,629.2z"/>
		<rect x="250.5" y="512.8" class="st9" width="348.5" height="33.9"/>
		<g>
			<path class="st7" d="M424.8,595.3c96,0,174.3-37,174.3-82.4s-78.3-82.4-174.3-82.4c-96,0-174.3,37-174.3,82.4
				S328.8,595.3,424.8,595.3z"/>
			<path class="st8" d="M424.8,579.3c83.4,0,151.5-29.8,151.5-66.4s-68-66.4-151.5-66.4c-83.4,0-151.5,29.8-151.5,66.4
				S341.3,579.3,424.8,579.3z"/>
			<path class="st2" d="M441.6,473.8c7.1,0.9,13.1,2.5,17.9,4.6c6.6,3,10.8,7,12.7,12l-26.8,1.7c-0.7-1.8-2-3.3-3.8-4.5V473.8
				L441.6,473.8z M441.6,504.9c12.1,2,20.7,4.4,25.7,7.2c6.1,3.5,9.2,7.9,9.2,13.3c0,6-3.9,11.1-11.6,15.3c-6,3.2-13.8,5.4-23.3,6.7
				v-11.9c1.5-0.5,2.8-1.1,4-1.7c3.3-1.9,5-4,5-6.5c0-2.2-1.4-4.2-4.2-5.8c-1.2-0.7-2.8-1.4-4.8-1.9V504.9z M417.4,536.5v-21
				c-2.4-0.3-4.7-0.7-6.8-1.1v-15.2c1.9,0.7,4.2,1.4,6.8,1.9v-17.3c-2.6,0.4-4.9,1-6.8,1.8v-12.2c2.2-0.2,4.5-0.4,6.8-0.5v-5h15.3v5
				c3.2,0.2,6.2,0.5,9,0.8v13.7c-2.2-1.5-5.2-2.7-9-3.5v19.6c3.2,0.4,6.2,0.8,9,1.3v14.5c-2.4-0.7-5.4-1.3-9-1.8v19.5
				c3.4-0.3,6.4-0.9,9-1.7v11.9c-2.8,0.4-5.8,0.7-9,0.9v9.4h-15.3v-9.1c-2.4-0.1-4.6-0.3-6.8-0.6v-13.7
				C412.7,535.2,414.9,536,417.4,536.5z M410.5,514.5c-10.4-1.8-18.3-4.3-23.6-7.4c-6.4-3.8-9.7-8.4-9.7-13.8
				c0-5.5,3.7-10.1,11-13.8c5.9-3,13.4-5,22.4-5.9v12.2c-1.2,0.5-2.2,1-3.1,1.6c-2.5,1.6-3.7,3.4-3.7,5.3c0,1.8,1.1,3.4,3.4,4.9
				c1,0.6,2.1,1.2,3.5,1.8V514.5L410.5,514.5z M410.5,548c-9.1-1-16.8-3-22.9-5.9c-7.6-3.6-12.5-8.7-14.6-15.3l27.7-1.4
				c1.1,2.7,3.3,5,6.4,6.9c1.1,0.7,2.3,1.3,3.5,1.9V548z"/>
		</g>
		<path class="st7" d="M283.9,558.1c96,0,174.3-37,174.3-82.4c0-45.4-78.3-82.4-174.3-82.4c-96,0-174.3,37-174.3,82.4
			C109.6,521.1,187.9,558.1,283.9,558.1z"/>
		<rect x="109.6" y="441.8" class="st7" width="348.5" height="33.9"/>
		<g>
			<path class="st7" d="M283.9,524.2c96,0,174.3-37,174.3-82.4c0-45.4-78.3-82.4-174.3-82.4c-96,0-174.3,37-174.3,82.4
				C109.6,487.2,187.9,524.2,283.9,524.2z"/>
			<path class="st8" d="M283.9,508.2c83.4,0,151.5-29.8,151.5-66.4c0-36.6-68-66.4-151.5-66.4c-83.4,0-151.5,29.8-151.5,66.4
				C132.4,478.4,200.5,508.2,283.9,508.2z"/>
			<path class="st2" d="M300.8,402.8c7.1,0.9,13.1,2.5,17.9,4.6c6.6,3,10.8,7,12.7,12l-26.8,1.7c-0.7-1.8-2-3.3-3.8-4.5V402.8
				L300.8,402.8z M300.8,433.9c12.1,2,20.7,4.4,25.7,7.2c6.1,3.5,9.2,7.9,9.2,13.3c0,6-3.9,11.1-11.6,15.3c-6,3.2-13.7,5.4-23.3,6.7
				v-11.9c1.5-0.5,2.8-1.1,4-1.7c3.3-1.9,5-4,5-6.6c0-2.2-1.4-4.2-4.2-5.8c-1.2-0.7-2.8-1.4-4.8-1.9V433.9z M276.5,465.5v-21
				c-2.4-0.3-4.7-0.7-6.8-1.1v-15.2c1.9,0.7,4.2,1.4,6.8,1.9v-17.3c-2.6,0.4-4.9,1-6.8,1.8v-12.2c2.2-0.2,4.5-0.4,6.8-0.5v-5h15.3v5
				c3.2,0.2,6.2,0.5,9,0.8v13.7c-2.2-1.5-5.2-2.7-9-3.5v19.6c3.2,0.4,6.2,0.8,9,1.3v14.5c-2.4-0.7-5.4-1.3-9-1.8v19.5
				c3.4-0.3,6.4-0.9,9-1.7v11.9c-2.8,0.4-5.8,0.7-9,0.9v9.4h-15.3v-9.1c-2.4-0.1-4.6-0.3-6.8-0.6v-13.7
				C271.8,464.1,274.1,464.9,276.5,465.5z M269.7,443.4c-10.4-1.8-18.3-4.3-23.6-7.4c-6.4-3.8-9.7-8.4-9.7-13.8
				c0-5.5,3.7-10.1,11-13.8c5.9-3,13.4-5,22.4-5.9v12.2c-1.2,0.5-2.2,1-3.1,1.6c-2.5,1.6-3.7,3.4-3.7,5.3c0,1.8,1.1,3.4,3.4,4.9
				c1,0.6,2.1,1.2,3.5,1.8V443.4L269.7,443.4z M269.7,476.9c-9.1-1-16.8-3-23-5.9c-7.6-3.6-12.5-8.7-14.6-15.3l27.7-1.4
				c1.1,2.7,3.3,5,6.4,6.9c1.1,0.7,2.3,1.3,3.5,1.9V476.9z"/>
		</g>
		<path class="st7" d="M408.6,498.3c96,0,174.3-37,174.3-82.4c0-45.4-78.3-82.4-174.3-82.4c-96,0-174.3,37-174.3,82.4
			C234.3,461.3,312.6,498.3,408.6,498.3z"/>
		<rect x="234.3" y="382" class="st7" width="348.5" height="33.9"/>
		<g>
			<path class="st7" d="M408.6,464.4c96,0,174.3-37,174.3-82.4c0-45.4-78.3-82.4-174.3-82.4c-96,0-174.3,37-174.3,82.4
				C234.3,427.4,312.6,464.4,408.6,464.4z"/>
			<path class="st8" d="M408.6,448.4c83.4,0,151.5-29.8,151.5-66.4c0-36.6-68.1-66.4-151.5-66.4c-83.4,0-151.5,29.8-151.5,66.4
				C257.1,418.6,325.2,448.4,408.6,448.4z"/>
			<path class="st10" d="M425.5,342.9c7.1,0.9,13.1,2.5,17.9,4.6c6.6,3,10.8,7,12.7,12l-26.8,1.7c-0.7-1.8-2-3.3-3.8-4.5V342.9
				L425.5,342.9z M425.5,374.1c12.1,2,20.7,4.4,25.7,7.2c6.1,3.5,9.2,7.9,9.2,13.3c0,6-3.9,11.1-11.6,15.3c-6,3.2-13.7,5.4-23.3,6.7
				v-11.9c1.5-0.5,2.8-1.1,4-1.7c3.3-1.9,5-4,5-6.5c0-2.2-1.4-4.2-4.2-5.8c-1.2-0.7-2.8-1.4-4.8-1.9V374.1z M401.2,405.6v-21
				c-2.4-0.3-4.7-0.7-6.8-1.1v-15.2c1.9,0.7,4.2,1.4,6.8,1.9V353c-2.6,0.4-4.9,1-6.8,1.8v-12.2c2.2-0.2,4.5-0.4,6.8-0.5v-5h15.3v5
				c3.2,0.2,6.2,0.5,9,0.8v13.7c-2.2-1.5-5.2-2.7-9-3.5v19.6c3.2,0.4,6.2,0.8,9,1.3v14.5c-2.4-0.7-5.4-1.3-9-1.8v19.5
				c3.4-0.3,6.4-0.9,9-1.7v11.9c-2.8,0.4-5.8,0.7-9,0.9v9.4h-15.3v-9.1c-2.4-0.1-4.6-0.3-6.8-0.6v-13.7
				C396.5,404.3,398.8,405.1,401.2,405.6z M394.4,383.6c-10.4-1.8-18.3-4.3-23.6-7.4c-6.4-3.8-9.7-8.4-9.7-13.8
				c0-5.5,3.7-10.1,10.9-13.8c5.9-3,13.4-5,22.4-5.9v12.2c-1.2,0.5-2.2,1-3.1,1.6c-2.5,1.6-3.7,3.4-3.7,5.3c0,1.8,1.1,3.4,3.4,4.9
				c0.9,0.6,2.1,1.2,3.5,1.8V383.6L394.4,383.6z M394.4,417.1c-9.1-1-16.8-3-23-5.9c-7.6-3.6-12.5-8.7-14.6-15.3l27.6-1.4
				c1.1,2.7,3.3,5,6.4,6.9c1.1,0.7,2.3,1.3,3.5,1.9V417.1z"/>
		</g>
		<path class="st7" d="M355.1,438.5c96,0,174.3-37,174.3-82.4c0-45.4-78.3-82.4-174.3-82.4c-96,0-174.3,37-174.3,82.4
			C180.8,401.4,259.1,438.5,355.1,438.5z"/>
		<rect x="180.8" y="322.1" class="st7" width="348.5" height="33.9"/>
		<g>
			<path class="st7" d="M355.1,404.6c96,0,174.3-37,174.3-82.4s-78.3-82.4-174.3-82.4c-96,0-174.3,37-174.3,82.4
				S259.1,404.6,355.1,404.6z"/>
			<path class="st8" d="M355.1,388.6c83.4,0,151.5-29.8,151.5-66.4c0-36.6-68.1-66.4-151.5-66.4c-83.4,0-151.5,29.8-151.5,66.4
				C203.6,358.7,271.7,388.6,355.1,388.6z"/>
			<path class="st10" d="M372,283.1c7.1,0.9,13.1,2.5,17.9,4.6c6.6,3,10.8,7,12.7,12l-26.8,1.7c-0.7-1.8-2-3.3-3.8-4.5V283.1
				L372,283.1z M372,314.2c12.1,2,20.7,4.4,25.7,7.2c6.1,3.5,9.2,7.9,9.2,13.3c0,6-3.9,11.1-11.6,15.3c-6,3.2-13.7,5.4-23.3,6.7
				v-11.9c1.5-0.5,2.8-1.1,4-1.7c3.3-1.9,5-4,5-6.5c0-2.2-1.4-4.2-4.2-5.8c-1.2-0.7-2.8-1.4-4.8-1.9V314.2z M347.7,345.8v-21
				c-2.4-0.3-4.7-0.7-6.8-1.1v-15.2c1.9,0.7,4.2,1.4,6.8,1.9v-17.3c-2.6,0.4-4.9,1-6.8,1.8v-12.2c2.2-0.2,4.5-0.4,6.8-0.5v-5H363v5
				c3.2,0.2,6.2,0.5,9,0.8v13.7c-2.2-1.5-5.2-2.7-9-3.5v19.6c3.2,0.4,6.2,0.8,9,1.3v14.5c-2.4-0.7-5.4-1.3-9-1.8v19.5
				c3.4-0.3,6.4-0.9,9-1.7v11.9c-2.8,0.4-5.8,0.7-9,0.9v9.4h-15.3v-9.1c-2.4-0.1-4.6-0.3-6.8-0.6v-13.7
				C343,344.5,345.3,345.2,347.7,345.8z M340.9,323.8c-10.4-1.8-18.3-4.3-23.6-7.4c-6.4-3.8-9.7-8.4-9.7-13.8
				c0-5.5,3.7-10.1,11-13.8c5.9-3,13.4-5,22.4-5.9V295c-1.2,0.5-2.2,1-3.1,1.6c-2.5,1.6-3.7,3.4-3.7,5.3c0,1.8,1.1,3.4,3.4,4.9
				c1,0.6,2.1,1.2,3.5,1.8V323.8L340.9,323.8z M340.9,357.2c-9.1-1-16.8-3-23-5.9c-7.6-3.6-12.5-8.7-14.6-15.3l27.7-1.4
				c1.1,2.7,3.3,5,6.4,6.9c1.1,0.7,2.3,1.3,3.5,1.9V357.2z"/>
		</g>
		<path class="st7" d="M399.6,391.3c96,0,174.3-37,174.3-82.4s-78.3-82.4-174.3-82.4c-96,0-174.3,37-174.3,82.4
			S303.7,391.3,399.6,391.3z"/>
		<rect x="225.4" y="274.9" class="st7" width="348.5" height="33.9"/>
		<g>
			<path class="st7" d="M399.6,357.4c96,0,174.3-37,174.3-82.4c0-45.4-78.3-82.4-174.3-82.4c-96,0-174.3,37-174.3,82.4
				C225.4,320.4,303.7,357.4,399.6,357.4z"/>
			<path class="st8" d="M399.6,341.4c83.4,0,151.5-29.8,151.5-66.4c0-36.6-68.1-66.4-151.5-66.4c-83.4,0-151.5,29.8-151.5,66.4
				C248.2,311.5,316.2,341.4,399.6,341.4z"/>
			<path class="st10" d="M416.5,235.9c7.1,0.9,13.1,2.5,17.9,4.6c6.6,3,10.8,7,12.7,12l-26.8,1.7c-0.7-1.8-2-3.3-3.8-4.5V235.9
				L416.5,235.9z M416.5,267c12.1,2,20.7,4.4,25.7,7.2c6.1,3.5,9.2,7.9,9.2,13.3c0,6-3.9,11.1-11.6,15.3c-6,3.2-13.7,5.4-23.3,6.7
				v-11.9c1.5-0.5,2.8-1.1,4-1.7c3.3-1.9,5-4,5-6.6c0-2.2-1.4-4.2-4.2-5.8c-1.2-0.7-2.8-1.4-4.8-1.9V267z M392.2,298.6v-21
				c-2.4-0.3-4.7-0.7-6.8-1.1v-15.2c1.9,0.7,4.2,1.4,6.8,1.9V246c-2.6,0.4-4.9,1-6.8,1.8v-12.2c2.2-0.2,4.5-0.4,6.8-0.5v-5h15.3v5
				c3.2,0.2,6.2,0.5,9,0.8v13.7c-2.2-1.5-5.2-2.7-9-3.5v19.6c3.2,0.4,6.2,0.8,9,1.3v14.5c-2.4-0.7-5.4-1.3-9-1.8v19.5
				c3.4-0.3,6.4-0.9,9-1.7v11.9c-2.8,0.4-5.8,0.7-9,0.9v9.4h-15.3v-9.1c-2.4-0.1-4.6-0.3-6.8-0.6v-13.7
				C387.5,297.3,389.8,298.1,392.2,298.6z M385.4,276.6c-10.4-1.8-18.3-4.3-23.6-7.4c-6.4-3.8-9.7-8.4-9.7-13.8
				c0-5.5,3.7-10.1,11-13.8c5.9-3,13.4-5,22.4-5.9v12.2c-1.2,0.5-2.2,1-3.1,1.6c-2.5,1.6-3.7,3.4-3.7,5.3c0,1.8,1.1,3.4,3.4,4.9
				c1,0.6,2.1,1.2,3.5,1.8V276.6L385.4,276.6z M385.4,310.1c-9.1-1-16.8-3-23-5.9c-7.6-3.6-12.5-8.7-14.6-15.3l27.7-1.4
				c1.1,2.7,3.3,5,6.4,6.9c1.1,0.7,2.3,1.3,3.5,1.9V310.1z"/>
		</g>
		<path class="st7" d="M339.8,341.8c96,0,174.3-37,174.3-82.4c0-45.4-78.3-82.4-174.3-82.4c-96,0-174.3,37-174.3,82.4
			C165.5,304.8,243.8,341.8,339.8,341.8z"/>
		<rect x="165.5" y="225.5" class="st7" width="348.5" height="33.9"/>
		<g>
			<path class="st7" d="M339.8,307.9c96,0,174.3-37,174.3-82.4c0-45.4-78.3-82.4-174.3-82.4c-96,0-174.3,37-174.3,82.4
				C165.5,270.9,243.8,307.9,339.8,307.9z"/>
			<path class="st8" d="M339.8,291.9c83.4,0,151.5-29.8,151.5-66.4c0-36.6-68.1-66.4-151.5-66.4c-83.4,0-151.5,29.8-151.5,66.4
				C188.3,262.1,256.4,291.9,339.8,291.9z"/>
			<path class="st10" d="M356.7,186.4c7.1,0.9,13.1,2.5,17.9,4.6c6.6,3,10.8,7,12.7,12l-26.8,1.7c-0.7-1.8-2-3.3-3.8-4.5V186.4
				L356.7,186.4z M356.7,217.6c12.1,2,20.7,4.4,25.7,7.2c6.1,3.5,9.2,7.9,9.2,13.3c0,6-3.9,11.1-11.6,15.3c-6,3.2-13.7,5.4-23.3,6.7
				v-11.9c1.5-0.5,2.8-1.1,4-1.7c3.3-1.9,5-4,5-6.5c0-2.2-1.4-4.2-4.2-5.8c-1.2-0.7-2.8-1.4-4.8-1.9V217.6z M332.4,249.1v-21
				c-2.4-0.3-4.7-0.7-6.8-1.1v-15.2c1.9,0.7,4.2,1.4,6.8,1.9v-17.3c-2.6,0.4-4.9,1-6.8,1.8v-12.2c2.2-0.2,4.5-0.4,6.8-0.5v-5h15.3v5
				c3.2,0.2,6.2,0.5,9,0.8v13.7c-2.2-1.5-5.2-2.7-9-3.5v19.6c3.2,0.4,6.2,0.8,9,1.3v14.5c-2.4-0.7-5.4-1.3-9-1.8v19.5
				c3.4-0.3,6.4-0.9,9-1.7V260c-2.8,0.4-5.8,0.7-9,0.9v9.4h-15.3v-9.1c-2.4-0.1-4.6-0.3-6.8-0.6v-13.7
				C327.7,247.8,330,248.6,332.4,249.1z M325.6,227.1c-10.4-1.8-18.3-4.3-23.6-7.4c-6.4-3.8-9.7-8.4-9.7-13.8
				c0-5.5,3.6-10.1,10.9-13.8c5.9-3,13.4-5,22.4-5.9v12.2c-1.2,0.5-2.2,1-3.1,1.6c-2.5,1.6-3.7,3.4-3.7,5.3c0,1.8,1.1,3.4,3.4,4.9
				c1,0.6,2.1,1.2,3.5,1.8V227.1L325.6,227.1z M325.6,260.6c-9.1-1-16.8-3-23-5.9c-7.6-3.6-12.5-8.7-14.6-15.3l27.7-1.4
				c1.1,2.7,3.3,5,6.4,6.9c1.1,0.7,2.3,1.3,3.5,1.9V260.6z"/>
		</g>
		<path class="st7" d="M296.4,296.1c96,0,174.3-37,174.3-82.4s-78.3-82.4-174.3-82.4s-174.3,37-174.3,82.4S200.4,296.1,296.4,296.1z
			"/>
		<rect x="122.1" y="179.8" class="st7" width="348.5" height="33.9"/>
		<g>
			<path class="st7" d="M296.4,262.2c96,0,174.3-37,174.3-82.4c0-45.4-78.3-82.4-174.3-82.4s-174.3,37-174.3,82.4
				C122.1,225.2,200.4,262.2,296.4,262.2z"/>
			<path class="st8" d="M296.4,246.2c83.4,0,151.5-29.8,151.5-66.4c0-36.6-68-66.4-151.5-66.4c-83.4,0-151.5,29.8-151.5,66.4
				C144.9,216.3,213,246.2,296.4,246.2z"/>
			<path class="st10" d="M313.3,140.7c7.1,0.9,13.1,2.5,17.9,4.6c6.6,3,10.8,7,12.7,12L317,159c-0.7-1.8-2-3.3-3.8-4.5V140.7
				L313.3,140.7z M313.3,171.8c12.1,2,20.7,4.4,25.7,7.2c6.1,3.5,9.2,7.9,9.2,13.3c0,6-3.9,11.1-11.6,15.3c-6,3.2-13.7,5.4-23.3,6.7
				v-11.9c1.5-0.5,2.8-1.1,4-1.7c3.3-1.9,5-4,5-6.5c0-2.2-1.4-4.2-4.2-5.8c-1.2-0.7-2.8-1.4-4.8-1.9V171.8z M289,203.4v-21
				c-2.4-0.3-4.7-0.7-6.8-1.1v-15.2c1.9,0.7,4.2,1.4,6.8,1.9v-17.3c-2.6,0.4-4.9,1-6.8,1.8v-12.2c2.2-0.2,4.5-0.4,6.8-0.5v-5h15.3v5
				c3.2,0.2,6.2,0.5,9,0.8v13.7c-2.2-1.5-5.2-2.7-9-3.5v19.6c3.2,0.4,6.2,0.8,9,1.3v14.5c-2.4-0.7-5.4-1.3-9-1.8v19.5
				c3.4-0.3,6.4-0.9,9-1.7v11.9c-2.8,0.4-5.8,0.7-9,0.9v9.4H289v-9.1c-2.4-0.1-4.6-0.3-6.8-0.6v-13.7
				C284.3,202.1,286.6,202.9,289,203.4z M282.2,181.4c-10.4-1.8-18.3-4.3-23.6-7.4c-6.4-3.8-9.7-8.4-9.7-13.8
				c0-5.5,3.7-10.1,11-13.8c5.9-3,13.4-5,22.4-5.9v12.2c-1.2,0.5-2.2,1-3.1,1.6c-2.5,1.6-3.7,3.4-3.7,5.3c0,1.8,1.1,3.4,3.4,4.9
				c1,0.6,2.1,1.2,3.5,1.8V181.4L282.2,181.4z M282.2,214.9c-9.1-1-16.8-3-23-5.9c-7.6-3.6-12.5-8.7-14.6-15.3l27.7-1.4
				c1.1,2.7,3.3,5,6.4,6.9c1.1,0.7,2.3,1.3,3.5,1.9V214.9z"/>
		</g>
		<path class="st7" d="M375.2,236.6c96,0,174.3-37,174.3-82.4s-78.3-82.4-174.3-82.4c-96,0-174.3,37-174.3,82.4
			S279.2,236.6,375.2,236.6z"/>
		<rect x="200.9" y="120.2" class="st7" width="348.5" height="33.9"/>
		<g>
			<path class="st7" d="M375.2,202.7c96,0,174.3-37,174.3-82.4c0-45.4-78.3-82.4-174.3-82.4c-96,0-174.3,37-174.3,82.4
				C201,165.6,279.2,202.7,375.2,202.7z"/>
			<path class="st8" d="M375.2,186.7c83.4,0,151.5-29.8,151.5-66.4c0-36.6-68-66.4-151.5-66.4c-83.4,0-151.5,29.8-151.5,66.4
				C223.7,156.8,291.8,186.7,375.2,186.7z"/>
			<path class="st2" d="M392.1,81.2c7.1,0.9,13.1,2.5,17.9,4.6c6.6,3,10.8,7,12.7,12l-26.8,1.7c-0.7-1.8-2-3.3-3.8-4.5V81.2
				L392.1,81.2z M392.1,112.3c12.1,2,20.7,4.4,25.7,7.2c6.1,3.5,9.2,7.9,9.2,13.3c0,6-3.9,11.1-11.6,15.3c-6,3.2-13.7,5.4-23.3,6.7
				v-11.9c1.5-0.5,2.8-1.1,4-1.7c3.3-1.9,5-4,5-6.5c0-2.2-1.4-4.2-4.2-5.8c-1.2-0.7-2.8-1.4-4.8-1.9V112.3z M367.8,143.9v-21
				c-2.4-0.3-4.7-0.7-6.8-1.1v-15.2c1.9,0.7,4.2,1.4,6.8,1.9V91.3c-2.6,0.4-4.9,1-6.8,1.8V80.9c2.2-0.2,4.5-0.4,6.8-0.5v-5h15.3v5
				c3.2,0.2,6.2,0.5,9,0.8v13.7c-2.2-1.5-5.2-2.7-9-3.5V111c3.2,0.4,6.2,0.8,9,1.3v14.5c-2.4-0.7-5.4-1.3-9-1.8v19.5
				c3.4-0.3,6.4-0.9,9-1.7v11.9c-2.8,0.4-5.8,0.7-9,0.9v9.4h-15.3v-9.1c-2.4-0.1-4.6-0.3-6.8-0.6v-13.7
				C363.1,142.6,365.4,143.3,367.8,143.9z M361,121.9c-10.4-1.8-18.3-4.3-23.6-7.4c-6.4-3.8-9.7-8.4-9.7-13.8
				c0-5.5,3.7-10.1,11-13.8c5.9-3,13.4-5,22.4-5.9v12.2c-1.2,0.5-2.2,1-3.1,1.6c-2.5,1.6-3.7,3.4-3.7,5.3c0,1.8,1.1,3.4,3.4,4.9
				c1,0.6,2.1,1.2,3.5,1.8V121.9L361,121.9z M361,155.3c-9.1-1-16.8-3-23-5.9c-7.6-3.6-12.5-8.7-14.6-15.3l27.7-1.4
				c1.1,2.7,3.3,5,6.4,6.9c1.1,0.7,2.3,1.3,3.5,1.9V155.3z"/>
		</g>
		<g>
			<path class="st7" d="M600.9,753.5c96,0,174.3-78.3,174.3-174.3c0-96-78.3-174.3-174.3-174.3c-96,0-174.3,78.3-174.3,174.3
				C426.7,675.2,505,753.5,600.9,753.5z"/>
			<path class="st8" d="M600.9,719.6c77.3,0,140.4-63.1,140.4-140.4c0-77.3-63.1-140.4-140.4-140.4c-77.3,0-140.4,63.1-140.4,140.4
				C460.5,656.6,523.6,719.6,600.9,719.6z"/>
			<path class="st2" d="M617.8,496.7c7.1,2,13.1,5.2,17.9,9.8c6.6,6.3,10.8,14.8,12.7,25.4l-26.8,3.5c-0.7-3.7-2-6.9-3.8-9.6V496.7
				L617.8,496.7z M617.8,562.5c12.1,4.2,20.7,9.2,25.7,15.1c6.1,7.3,9.2,16.7,9.2,28.1c0,12.8-3.9,23.5-11.6,32.3
				c-6,6.8-13.7,11.5-23.3,14.2V627c1.5-1,2.8-2.2,4-3.7c3.3-3.9,5-8.5,5-13.8c0-4.7-1.4-8.8-4.2-12.2c-1.2-1.5-2.8-2.9-4.8-4.1
				V562.5z M593.6,629.2v-44.3c-2.4-0.7-4.7-1.4-6.8-2.2v-32c1.9,1.6,4.2,2.9,6.8,4.1v-36.7c-2.6,0.9-4.9,2.2-6.8,3.8v-25.8
				c2.2-0.5,4.5-0.9,6.8-1.1v-10.5h15.3V495c3.2,0.4,6.2,1,9,1.7v29c-2.2-3.3-5.2-5.7-9-7.4v41.4c3.2,0.9,6.2,1.8,9,2.7v30.7
				c-2.4-1.5-5.4-2.8-9-3.8v41.3c3.4-0.6,6.4-1.9,9-3.7v25.2c-2.8,0.8-5.8,1.4-9,1.9V674h-15.3v-19.3c-2.4-0.3-4.6-0.7-6.8-1.2
				v-29.1C588.8,626.5,591.1,628.1,593.6,629.2z M586.7,582.7c-10.4-3.9-18.3-9.1-23.6-15.7c-6.4-8-9.7-17.7-9.7-29.2
				c0-11.6,3.6-21.3,10.9-29.2c5.9-6.3,13.4-10.5,22.4-12.5v25.8c-1.2,1-2.2,2.1-3.1,3.4c-2.5,3.4-3.7,7.2-3.7,11.2
				c0,3.7,1.1,7.2,3.4,10.4c1,1.3,2.1,2.6,3.5,3.7V582.7L586.7,582.7z M586.7,653.5c-9.1-2.2-16.8-6.3-22.9-12.5
				c-7.6-7.6-12.5-18.4-14.6-32.3l27.7-3c1.1,5.6,3.2,10.5,6.4,14.6c1.1,1.5,2.3,2.8,3.5,4V653.5z"/>
		</g>
	</g>
</g>
</svg>
